doc/vcd/data_packet_generator.vcd
$scope module USBDataPacketGenerator $end
$var wire 2 ! usbdatapacketgenerator $end
$var wire 1 " usbdatapacketgenerator_datacrcinterface_start $end
$var wire 16 # usbdatapacketgenerator_datacrcinterface_crc $end
$var wire 1 $ usbdatapacketgenerator_usbinstreaminterface_valid $end
$var wire 1 % usbdatapacketgenerator_usbinstreaminterface_ready $end
$var wire 1 & usbdatapacketgenerator_usbinstreaminterface_first $end
$var wire 1 ' usbdatapacketgenerator_usbinstreaminterface_last $end
$var wire 8 ( usbdatapacketgenerator_usbinstreaminterface_payload $end
$var wire 1 ) usbdatapacketgenerator_utmitransmitinterface_valid $end
$var wire 8 * usbdatapacketgenerator_utmitransmitinterface_data $end
$var wire 1 + usbdatapacketgenerator_utmitransmitinterface_ready $end
$var wire 8 , usbdatapacketgenerator_current_data_pid $end
$var wire 8 - usbdatapacketgenerator_remaining_crc $end
$var wire 1 . usbdatapacketgenerator_is_zlp $end
$var wire 8 / usbdatapacketgenerator_usbdatapacketcrc_rx_data $end
$var wire 1 0 usbdatapacketgenerator_usbdatapacketcrc_rx_valid $end
$var wire 8 1 usbdatapacketgenerator_usbdatapacketcrc_tx_data $end
$var wire 1 2 usbdatapacketgenerator_usbdatapacketcrc_tx_valid $end
$var wire 16 3 usbdatapacketgenerator_usbdatapacketcrc_crc0 $end
$var wire 16 4 usbdatapacketgenerator_usbdatapacketcrc_crc1 $end
$var wire 16 5 usbdatapacketgenerator_usbdatapacketcrc_output_crc $end
$var wire 1 6 usbdatapacketgenerator_usbdatapacketcrc_clear_internal $end
$var wire 1 7 usb_clk $end
$var wire 1 8 usb_rst $end
$var wire 120 9 fsm0 $end
$var wire 136 : fsm1 $end
$var wire 8 ; usbdatapacketgenerator_current_data_pid_next_value0 $end
$var wire 1 < usbdatapacketgenerator_current_data_pid_next_value_ce0 $end
$var wire 1 = usbdatapacketgenerator_is_zlp_next_value1 $end
$var wire 1 > usbdatapacketgenerator_is_zlp_next_value_ce1 $end
$var wire 8 ? usbdatapacketgenerator_remaining_crc_next_value2 $end
$var wire 1 @ usbdatapacketgenerator_remaining_crc_next_value_ce2 $end
$var wire 1 A sys_clk $end
$enddefinitions $end
$dumpvars
$end
#0
b00 !
0"
b0000000000000000 #
0$
0%
0&
0'
b00000000 (
0)
b00000000 *
0+
b00000000 ,
b00000000 -
0.
b00000000 /
00
b00000000 1
02
b1111111111111111 3
b1111111111111111 4
b0000000000000000 5
06
07
08
b01001001010001000100110001000101 9
b001100000011101001001001010001000100110001000101 :
b00000000 ;
0<
0=
0>
b00000000 ?
0@
1A
b0000000000000000 3
b11000011 ;
1<
#0.0
0A
#0.0
b00110001001110100101001101000101010011100100010001011111010100000100100101000100 :
1A
b11000011 ,
1>
b10101010 (
1$
b10101010 1
1&
17
#0.0
0A
07
#0.0
1)
16
b11000011 *
b00000000 ;
0<
17
1A
0>
b10111011 (
1"
b10111011 1
0&
b0101001101000101010011100100010001011111010100000100100101000100 9
#0.0
0A
07
#0.0
b11001100 1
1A
17
b11001100 (
#0.0
0A
07
#0.0
b0011001000111010010100110100010101001110010001000101111101010000010000010101100101001100010011110100000101000100 :
1+
1A
0$
b00000000 1
12
17
b00000000 (
#0.0
0A
07
#0.0
b00110011001110100101001101000101010011100100010001011111010000110101001001000011010111110100011001001001010100100101001101010100 :
0)
b00000000 *
06
1A
0"
1%
17
b010100110100010101001110010001000101111101010000010000010101100101001100010011110100000101000100 9
#0.0
0A
07
#0.0
b0011010000111010010100110100010101001110010001000101111101000011010100100100001101011111010100110100010101000011010011110100111001000100 :
1)
b10111111 ?
b01000000 *
1A
b1011111101000000 5
b1011111101000000 #
0%
b1011111101000000 3
17
1@
b1111110100000010 4
b0101001101000101010011100100010001011111010000110101001001000011010111110100011001001001010100100101001101010100 9
#0.0
0A
07
#0.0
b001100000011101001001001010001000100110001000101 :
b10111111 *
1A
b10111111 -
b0100111111111110 5
b0100111111111110 #
b00000000 ?
17
0@
b1000000000001101 4
b010100110100010101001110010001000101111101000011010100100100001101011111010100110100010101000011010011110100111001000100 9
b0100111111111110 3
#0.0
0A
07
#0.0
0)
b00000000 *
b11000011 ;
1<
1A
b0011111110001110 5
b0011111110001110 #
b0011111110001110 3
17
b1000111000000011 4
b01001001010001000100110001000101 9
#0.0
0A
07
#0.0
b1101101111111111 #
1A
17
b0000000000100100 4
b1101101111111111 5
b1101101111111111 3
#0.0
0A
07
#0.0
b1111111111011011 #
1A
17
b0010010000000000 4
b1111111111011011 5
b1111111111011011 3
#0.0
0A
07
#0.0
b1110010011111111 #
1A
17
b0000000011011000 4
b1110010011111111 5
b1110010011111111 3
#0.0
0A
07
#0.0
b1111111111100100 #
1A
17
b1101100000000000 4
b1111111111100100 5
b1111111111100100 3
#0.0
0A
07
#0.0
b1111010010111111 #
1A
17
b0000001011010000 4
b1111010010111111 5
b1111010010111111 3
#0.0
0A
07
#0.0
b0000111111110101 #
1A
17
b0101000000001111 4
b0000111111110101 5
b0000111111110101 3
#0.0
0A
07
#0.0
b1111100010001111 #
1A
17
b0000111011100000 4
b1111100010001111 5
b1111100010001111 3
#0.0
0A
07
#0.0
0+
b0001101111111001 #
02
1A
17
b0110000000100111 4
b0001101111111001 5
b0001101111111001 3
#0.0
0A
07
#0.0
1A
17
#0.0
0A
07
#0.0
1A
17
#0.0
0A
07
#0.0
1A
17
#0.0
0A
07
#0.0
1A
17
#0.0
0A
07
#0.0
1A
17
#0.0
0A
07
#0.0
1A
17
b00 !
0"
b0000000000000000 #
0$
0%
0&
0'
b00000000 (
0)
b00000000 *
0+
b00000000 ,
b00000000 -
0.
b00000000 /
00
b00000000 1
02
b1111111111111111 3
b1111111111111111 4
b0000000000000000 5
06
07
08
b01001001010001000100110001000101 9
b001100000011101001001001010001000100110001000101 :
b00000000 ;
0<
0=
0>
b00000000 ?
0@
1A
