doc/vcd/test_USBInterpacketTimerTest_test_resets_and_delays.vcd
$scope module USBInterpacketTimer $end
$var wire 2 ! usbinterpackettimer0 $end
$var wire 1 " usbinterpackettimer1 $end
$var wire 1 # usbinterpackettimer2 $end
$var wire 1 $ usbinterpackettimer3 $end
$var wire 10 % usbinterpackettimer_counter $end
$var wire 1 & usbinterpackettimer4 $end
$var wire 1 ' start $end
$var wire 1 ( tx_allowed $end
$var wire 1 ) tx_timeout $end
$var wire 1 * rx_timeout $end
$var wire 1 + sys_clk $end
$var wire 1 , sys_rst $end
$var wire 1 - usb_clk $end
$var wire 1 . usb_rst $end
$enddefinitions $end
$timescale 1ns $end
$dumpvars
$end
#2
b00 !
0"
0#
0$
b0000000000 %
0&
0'
0(
0)
0*
0+
0,
0-
0.
#4
#6
b01 !
b0000000001 %
1-
1+
#8
0+
0-
#10
1+
b0000000010 %
1-
#12
0+
0-
#14
1+
b0000000011 %
1-
#16
0+
0-
#18
1+
b0000000100 %
1-
#20
0+
0-
#22
1+
1-
1'
b0000000101 %
1&
#24
0+
0-
#26
1+
1-
0'
b0000000000 %
0&
#28
0+
0-
#30
1+
b0000000001 %
1-
#32
0+
0-
#34
1+
b0000000010 %
1-
#36
0+
0-
#38
1+
b0000000011 %
1-
#40
0+
0-
#42
1+
b0000000100 %
1-
#44
0+
0-
#46
1+
b0000000101 %
1-
#48
0+
0-
#50
1+
b0000000110 %
1-
#52
0+
0-
#54
1+
b0000000111 %
1-
#56
0+
0-
#58
1+
b0000001000 %
1-
#60
0+
0-
#62
1+
b0000001001 %
1-
#64
0+
0-
#66
1+
1"
1-
b0000001010 %
1(
#68
0+
0-
#70
1+
0"
1-
b0000001011 %
0(
#72
0+
0-
#74
1+
b0000001100 %
1-
#76
0+
0-
#78
1+
b0000001101 %
1-
#80
0+
0-
#82
1+
b0000001110 %
1-
#84
0+
0-
#86
1+
b0000001111 %
1-
#88
0+
0-
#90
1+
b0000010000 %
1-
#92
0+
0-
#94
1+
b0000010001 %
1-
#96
0+
0-
#98
1+
b0000010010 %
1-
#100
0+
0-
#102
1+
b0000010011 %
1-
#104
0+
0-
#106
1+
b0000010100 %
1-
#108
0+
0-
#110
1+
b0000010101 %
1-
#112
0+
0-
#114
1+
b0000010110 %
1-
#116
0+
0-
#118
1+
b0000010111 %
1-
#120
0+
0-
#122
1+
b0000011000 %
1-
#124
0+
0-
#126
1+
b0000011001 %
1-
#128
0+
0-
#130
1+
b0000011010 %
1-
#132
0+
0-
#134
1+
b0000011011 %
1-
#136
0+
0-
#138
1+
b0000011100 %
1-
#140
0+
0-
#142
1+
b0000011101 %
1-
#144
0+
0-
#146
1+
b0000011110 %
1-
#148
0+
0-
#150
1+
b0000011111 %
1-
#152
0+
0-
#154
1+
1-
1#
b0000100000 %
1)
#156
0+
0-
#158
1+
1-
0#
b0000100001 %
0)
#160
0+
0-
#162
1+
b0000100010 %
1-
#164
0+
0-
#166
1+
b0000100011 %
1-
#168
0+
0-
#170
1+
b0000100100 %
1-
#172
0+
0-
#174
1+
b0000100101 %
1-
#176
0+
0-
#178
1+
b0000100110 %
1-
#180
0+
0-
#182
1+
b0000100111 %
1-
#184
0+
0-
#186
1+
b0000101000 %
1-
#188
0+
0-
#190
1+
b0000101001 %
1-
#192
0+
0-
#194
1+
b0000101010 %
1-
#196
0+
0-
#198
1+
b0000101011 %
1-
#200
0+
0-
#202
1+
b0000101100 %
1-
#204
0+
0-
#206
1+
b0000101101 %
1-
#208
0+
0-
#210
1+
b0000101110 %
1-
#212
0+
0-
#214
1+
b0000101111 %
1-
#216
0+
0-
#218
1+
b0000110000 %
1-
#220
0+
0-
#222
1+
b0000110001 %
1-
#224
0+
0-
#226
1+
b0000110010 %
1-
#228
0+
0-
#230
1+
b0000110011 %
1-
#232
0+
0-
#234
1+
b0000110100 %
1-
#236
0+
0-
#238
1+
b0000110101 %
1-
#240
0+
0-
#242
1+
b0000110110 %
1-
#244
0+
0-
#246
1+
b0000110111 %
1-
#248
0+
0-
#250
1+
b0000111000 %
1-
#252
0+
0-
#254
1+
b0000111001 %
1-
#256
0+
0-
#258
1+
b0000111010 %
1-
#260
0+
0-
#262
1+
b0000111011 %
1-
#264
0+
0-
#266
1+
b0000111100 %
1-
#268
0+
0-
#270
1+
b0000111101 %
1-
#272
0+
0-
#274
1+
b0000111110 %
1-
#276
0+
0-
#278
1+
b0000111111 %
1-
#280
0+
0-
#282
1+
b0001000000 %
1-
#284
0+
0-
#286
1+
b0001000001 %
1-
#288
0+
0-
#290
1+
b0001000010 %
1-
#292
0+
0-
#294
1+
b0001000011 %
1-
#296
0+
0-
#298
1+
b0001000100 %
1-
#300
0+
0-
#302
1+
b0001000101 %
1-
#304
0+
0-
#306
1+
b0001000110 %
1-
#308
0+
0-
#310
1+
b0001000111 %
1-
#312
0+
0-
#314
1+
b0001001000 %
1-
#316
0+
0-
#318
1+
b0001001001 %
1-
#320
0+
0-
#322
1+
b0001001010 %
1-
#324
0+
0-
#326
1+
b0001001011 %
1-
#328
0+
0-
#330
1+
b0001001100 %
1-
#332
0+
0-
#334
1+
b0001001101 %
1-
#336
0+
0-
#338
1+
b0001001110 %
1-
#340
0+
0-
#342
1+
b0001001111 %
1-
#344
0+
0-
#346
1+
1-
1$
b0001010000 %
1*
#348
0+
0-
#350
1+
1-
0$
b0001010001 %
0*
#352
0+
0-
#354
1+
b0001010010 %
1-
#356
0+
0-
#358
1+
b0001010011 %
1-
#360
0+
0-
#362
1+
b0001010100 %
1-
#364
0+
0-
#366
1+
b0001010101 %
1-
#368
0+
0-
#370
1+
b0001010110 %
1-
#372
0+
0-
#374
1+
b0001010111 %
1-
#376
0+
0-
#378
1+
b0001011000 %
1-
#380
0+
0-
#382
1+
b0001011001 %
1-
#384
0+
0-
#386
1+
b0001011010 %
1-
#388
0+
0-
#390
1+
b0001011011 %
1-
#392
0+
0-
#394
1+
b0001011100 %
1-
#396
0+
0-
#398
1+
b0001011101 %
1-
#400
0+
0-
#402
1+
b0001011110 %
1-
#404
0+
0-
#406
1+
b0001011111 %
1-
#408
0+
0-
#410
1+
b0001100000 %
1-
#412
0+
0-
#414
1+
b0001100001 %
1-
#416
0+
0-
#418
1+
b0001100010 %
1-
#420
0+
0-
#422
1+
b0001100011 %
1-
#424
0+
0-
#426
1+
b0001100100 %
1-
#428
0+
0-
#430
1+
b0001100101 %
1-
#432
0+
0-
#434
1+
b0001100110 %
1-
#436
0+
0-
#438
1+
b0001100111 %
1-
#440
0+
0-
#442
1+
b0001101000 %
1-
#444
0+
0-
#446
1+
b0001101001 %
1-
#448
0+
0-
#450
1+
b0001101010 %
1-
#452
0+
0-
#454
1+
b0001101011 %
1-
#456
0+
0-
#458
1+
b0001101100 %
1-
#460
0+
0-
#462
1+
b0001101101 %
1-
#464
0+
0-
#466
1+
b0001101110 %
1-
#468
0+
0-
#470
1+
b0001101111 %
1-
#472
0+
0-
#474
1+
b0001110000 %
1-
#476
0+
0-
#478
1+
b0001110001 %
1-
#480
0+
0-
#482
1+
b0001110010 %
1-
b00 !
0"
0#
0$
b0000000000 %
0&
0'
0(
0)
0*
0+
0,
0-
0.
