doc/vcd/test_USBDataPacketGeneratorTest_test_single_byte.vcd
$scope module USBDataPacketGenerator $end
$var wire 2 ! usbdatapacketgenerator $end
$var wire 1 " usbdatapacketgenerator_datacrcinterface_start $end
$var wire 16 # usbdatapacketgenerator_datacrcinterface_crc $end
$var wire 1 $ usbdatapacketgenerator_usbinstreaminterface_valid $end
$var wire 1 % usbdatapacketgenerator_usbinstreaminterface_ready $end
$var wire 1 & usbdatapacketgenerator_usbinstreaminterface_first $end
$var wire 1 ' usbdatapacketgenerator_usbinstreaminterface_last $end
$var wire 8 ( usbdatapacketgenerator_usbinstreaminterface_payload $end
$var wire 1 ) usbdatapacketgenerator_utmitransmitinterface_valid $end
$var wire 8 * usbdatapacketgenerator_utmitransmitinterface_data $end
$var wire 1 + usbdatapacketgenerator_utmitransmitinterface_ready $end
$var wire 8 , usbdatapacketgenerator_current_data_pid $end
$var wire 8 - usbdatapacketgenerator_remaining_crc $end
$var wire 1 . usbdatapacketgenerator_is_zlp $end
$var wire 8 / usbdatapacketgenerator_usbdatapacketcrc_rx_data $end
$var wire 1 0 usbdatapacketgenerator_usbdatapacketcrc_rx_valid $end
$var wire 8 1 usbdatapacketgenerator_usbdatapacketcrc_tx_data $end
$var wire 1 2 usbdatapacketgenerator_usbdatapacketcrc_tx_valid $end
$var wire 16 3 usbdatapacketgenerator_usbdatapacketcrc_crc0 $end
$var wire 16 4 usbdatapacketgenerator_usbdatapacketcrc_crc1 $end
$var wire 16 5 usbdatapacketgenerator_usbdatapacketcrc_output_crc $end
$var wire 1 6 usbdatapacketgenerator_usbdatapacketcrc_clear_internal $end
$var wire 1 7 sys_clk $end
$var wire 1 8 sys_rst $end
$var wire 1 9 usb_clk $end
$var wire 1 : usb_rst $end
$var wire 120 ; fsm0 $end
$var wire 136 < fsm1 $end
$var wire 8 = usbdatapacketgenerator_current_data_pid_next_value0 $end
$var wire 1 > usbdatapacketgenerator_current_data_pid_next_value_ce0 $end
$var wire 1 ? usbdatapacketgenerator_is_zlp_next_value1 $end
$var wire 1 @ usbdatapacketgenerator_is_zlp_next_value_ce1 $end
$var wire 8 A usbdatapacketgenerator_remaining_crc_next_value2 $end
$var wire 1 B usbdatapacketgenerator_remaining_crc_next_value_ce2 $end
$enddefinitions $end
$timescale 1ns $end
$dumpvars
$end
#2
b00 !
0"
b0000000000000000 #
0$
0%
0&
0'
b00000000 (
0)
b00000000 *
0+
b00000000 ,
b00000000 -
0.
b00000000 /
00
b00000000 1
02
b1111111111111111 3
b1111111111111111 4
b0000000000000000 5
06
07
08
09
0:
b01001001010001000100110001000101 ;
b001100000011101001001001010001000100110001000101 <
b00000000 =
0>
0?
0@
b00000000 A
0B
b11000011 =
1>
b0000000000000000 3
#4
#6
1+
17
b10101011 1
b00110001001110100101001101000101010011100100010001011111010100000100100101000100 <
b11000011 ,
b10101011 (
1@
1$
12
1&
1'
19
#8
07
09
#10
1)
16
b0101001101000101010011100100010001011111010100000100100101000100 ;
b11000011 *
b0011001000111010010100110100010101001110010001000101111101010000010000010101100101001100010011110100000101000100 <
b00000000 =
0>
b0000000000000001 5
0@
1"
b0000000000000001 #
b0000000000000001 3
17
b0111111111111111 4
19
#12
07
09
#14
06
b010100110100010101001110010001000101111101010000010000010101100101001100010011110100000101000100 ;
b10101011 *
b00110011001110100101001101000101010011100100010001011111010000110101001001000011010111110100011001001001010100100101001101010100 <
b0000000000000000 5
0"
b0000000000000000 #
b0000000000000000 3
1%
17
b1111111111111111 4
19
#16
07
09
#18
1B
b0101001101000101010011100100010001011111010000110101001001000011010111110100011001001001010100100101001101010100 ;
b0111111111111111 4
17
b00000001 *
b0011010000111010010100110100010101001110010001000101111101000011010100100100001101011111010100110100010101000011010011110100111001000100 <
b0000000000000001 5
b0000000000000001 3
b0000000000000001 #
0$
0%
0&
0'
19
#20
07
09
#22
0B
b010100110100010101001110010001000101111101000011010100100100001101011111010100110100010101000011010011110100111001000100 ;
b00000000 *
b001100000011101001001001010001000100110001000101 <
b1100000011000000 5
b1100000011000000 #
b1100000011000000 3
17
b1111110011111100 4
19
#24
07
09
#26
0)
b01001001010001000100110001000101 ;
b11000011 =
1>
b0101000011000001 5
b0101000011000001 #
b0101000011000001 3
17
b0111110011110101 4
19
#28
07
09
#30
b1001000010010000 #
b1001000010010000 3
19
17
b1111011011110110 4
b1001000010010000 5
#32
07
09
#34
b0110110010010001 #
b0110110010010001 3
19
17
b0111011011001001 4
b0110110010010001 5
#36
07
09
#38
b1010110010101100 #
b1010110010101100 3
19
17
b1100101011001010 4
b1010110010101100 5
#40
07
09
#42
b0111110110101101 #
b0111110110101101 3
19
17
b0100101001000001 4
b0111110110101101 5
#44
07
09
#46
b1011110110111101 #
b1011110110111101 3
19
17
b0100001001000010 4
b1011110110111101 5
#48
07
09
#50
b0111000101111100 #
b0111000101111100 3
19
17
b1100000101110001 4
b0111000101111100 5
#52
07
09
#54
b1110000101110001 #
b1110000101110001 3
19
17
b0111000101111000 4
b1110000101110001 5
#56
07
09
#58
b0010010000100000 #
b0010010000100000 3
19
17
b1111101111011011 4
b0010010000100000 5
b00 !
0"
b0000000000000000 #
0$
0%
0&
0'
b00000000 (
0)
b00000000 *
0+
b00000000 ,
b00000000 -
0.
b00000000 /
00
b00000000 1
02
b1111111111111111 3
b1111111111111111 4
b0000000000000000 5
06
07
08
09
0:
b01001001010001000100110001000101 ;
b001100000011101001001001010001000100110001000101 <
b00000000 =
0>
0?
0@
b00000000 A
0B
