doc/vcd/test_USBInTransferManagerTest_test_zlp_generation.vcd
$scope module USBInTransferManager $end
$var wire 1 ! active $end
$var wire 1 " transfer_stream_valid $end
$var wire 1 # transfer_stream_ready $end
$var wire 1 $ transfer_stream_last $end
$var wire 8 % transfer_stream_payload $end
$var wire 1 & packet_stream_valid $end
$var wire 1 ' packet_stream_ready $end
$var wire 1 ( packet_stream_first $end
$var wire 1 ) packet_stream_last $end
$var wire 8 * packet_stream_payload $end
$var wire 1 + flush $end
$var wire 1 , discard $end
$var wire 2 - data_pid $end
$var wire 1 . buffer_toggle $end
$var wire 1 / tokenizer_new_token $end
$var wire 1 0 tokenizer_ready_for_response $end
$var wire 1 1 tokenizer_is_in $end
$var wire 1 2 handshakes_in_ack $end
$var wire 1 3 handshakes_out_nak $end
$var wire 1 4 generate_zlps $end
$var wire 1 5 start_with_data1 $end
$var wire 1 6 reset_sequence $end
$var wire 3 7 memory0_adr0 $end
$var wire 8 8 memory0_dat_r0 $end
$var wire 1 9 memory0_we $end
$var wire 8 : memory0_dat_w $end
$var wire 3 ; memory1_adr0 $end
$var wire 8 < memory1_dat_r0 $end
$var wire 1 = memory1_we $end
$var wire 8 > memory1_dat_w $end
$var wire 3 ? memory0_adr1 $end
$var wire 8 @ memory0_dat_r1 $end
$var wire 3 A memory1_adr1 $end
$var wire 8 B memory1_dat_r1 $end
$var wire 4 C fill_count_0 $end
$var wire 4 D fill_count_1 $end
$var wire 1 E stream_ended_in_buffer0 $end
$var wire 1 F stream_ended_in_buffer1 $end
$var wire 4 G send_position $end
$var wire 1 H is_ongoing0 $end
$var wire 1 I is_ongoing1 $end
$var wire 1 J is_ongoing2 $end
$var wire 1 K is_ongoing3 $end
$var wire 1 L sys_clk $end
$var wire 1 M sys_rst $end
$var wire 1 N usb_clk $end
$var wire 1 O usb_rst $end
$var wire 104 P fsm0 $end
$var wire 120 Q fsm1 $end
$var wire 4 R send_position_next_value0 $end
$var wire 1 S send_position_next_value_ce0 $end
$var wire 1 T fsm_next_value $end
$var wire 1 U fsm_next_value_ce $end
$var wire 2 V data_pid_next_value1 $end
$var wire 1 W data_pid_next_value_ce1 $end
$var wire 1 X packet_stream_first_next_value2 $end
$var wire 1 Y packet_stream_first_next_value_ce2 $end
$var wire 8 Z transmit_buffer_0_data_0 $end
$var wire 8 [ transmit_buffer_0_data_1 $end
$var wire 8 \ transmit_buffer_0_data_2 $end
$var wire 8 ] transmit_buffer_0_data_3 $end
$var wire 8 ^ transmit_buffer_0_data_4 $end
$var wire 8 _ transmit_buffer_0_data_5 $end
$var wire 8 ` transmit_buffer_0_data_6 $end
$var wire 8 a transmit_buffer_0_data_7 $end
$var wire 3 b adr_reg0 $end
$var wire 3 c adr_reg1 $end
$var wire 8 d transmit_buffer_1_data_0 $end
$var wire 8 e transmit_buffer_1_data_1 $end
$var wire 8 f transmit_buffer_1_data_2 $end
$var wire 8 g transmit_buffer_1_data_3 $end
$var wire 8 h transmit_buffer_1_data_4 $end
$var wire 8 i transmit_buffer_1_data_5 $end
$var wire 8 j transmit_buffer_1_data_6 $end
$var wire 8 k transmit_buffer_1_data_7 $end
$var wire 3 l adr_reg2 $end
$var wire 3 m adr_reg3 $end
$enddefinitions $end
$timescale 17ns $end
$dumpvars
$end
#1
0!
0"
0#
0$
b00000000 %
0&
0'
0(
0)
b00000000 *
0+
0,
b01 -
0.
0/
00
01
02
03
04
05
06
b000 7
b00000000 8
09
b00000000 :
b000 ;
b00000000 <
0=
b00000000 >
b000 ?
b00000000 @
b000 A
b00000000 B
b0000 C
b0000 D
0E
0F
b0000 G
0H
0I
0J
0K
0L
0M
0N
0O
b01010111010000010100100101010100010111110100011001001111010100100101111101000100010000010101010001000001 P
b001100000011101001010111010000010100100101010100010111110100011001001111010100100101111101000100010000010101010001000001 Q
b0000 R
0S
0T
0U
b00 V
0W
0X
0Y
b00000000 Z
b00000000 [
b00000000 \
b00000000 ]
b00000000 ^
b00000000 _
b00000000 `
b00000000 a
b000 b
b000 c
b00000000 d
b00000000 e
b00000000 f
b00000000 g
b00000000 h
b00000000 i
b00000000 j
b00000000 k
b000 l
b000 m
1H
1#
#2
#3
11
1'
19
b00010001 :
b00010001 >
1L
1!
1"
1N
14
b00010001 %
#4
0N
0L
#5
b001 7
b00010001 8
b0001 C
b00100010 :
b001 ;
b00100010 >
b00010001 @
1L
1N
b00010001 Z
b00100010 %
#6
0N
0L
#7
b001 l
b010 7
b00100010 8
b0010 C
b00110011 :
b001 b
b010 ;
b00110011 >
1L
1N
b00100010 [
b00110011 %
#8
0N
0L
#9
b010 l
b011 7
b00110011 8
b0011 C
b01000100 :
b010 b
b011 ;
b01000100 >
1L
1N
b00110011 \
b01000100 %
#10
0N
0L
#11
b01000100 ]
b011 l
b100 7
b01000100 8
b0100 C
b01010101 :
b011 b
b100 ;
b01010101 >
1L
1N
b01010101 %
#12
0N
0L
#13
b100 l
b01010101 ^
b101 7
b01010101 8
b0101 C
b01100110 :
b100 b
b101 ;
b01100110 >
1L
1N
b01100110 %
#14
0N
0L
#15
b101 l
b110 7
b01100110 _
b0110 C
b01100110 8
b01110111 :
b101 b
b110 ;
b01110111 >
1L
1N
b01110111 %
#16
0N
0L
#17
b110 l
b111 7
b01110111 8
b0111 C
b01110111 `
b10001000 :
b110 b
b111 ;
b10001000 >
1L
1N
b0011000100111010010101110100000101001001010101000101111101010100010011110101111101010011010001010100111001000100 Q
b10001000 %
#18
0N
0L
#19
b000 7
b10001000 8
1X
09
1Y
b10001000 a
b00010001 *
b111 b
b000 ;
b00 -
1.
0H
1L
1N
10
b010101110100000101001001010101000101111101010100010011110101111101010011010001010100111001000100 P
b00110010001110100101001101000101010011100100010001011111010100000100000101000011010010110100010101010100 Q
b111 l
1I
b1000 C
1S
0"
#20
0N
0L
#21
b000 l
1&
0I
b00010001 8
1(
0X
b000 b
b0001 R
1J
1L
b001 ?
1N
00
b0101001101000101010011100100010001011111010100000100000101000011010010110100010101010100 P
#22
0N
0L
#23
0(
b00100010 *
b0010 R
b001 c
b0001 G
1L
b010 ?
1N
b00100010 @
#24
0N
0L
#25
b0010 G
b00110011 @
1L
b011 ?
b0011 R
1N
b00110011 *
b010 c
#26
0N
0L
#27
b0011 G
b01000100 @
1L
b100 ?
b0100 R
1N
b01000100 *
b011 c
#28
0N
0L
#29
b0100 G
b01010101 @
1L
b101 ?
b0101 R
1N
b01010101 *
b100 c
#30
0N
0L
#31
b0101 G
b01100110 @
1L
b110 ?
b0110 R
1N
b01100110 *
b101 c
#32
0N
0L
#33
b0110 G
b01110111 @
1L
b111 ?
b0111 R
1N
b01110111 *
b110 c
#34
0N
0L
#35
1)
b10001000 *
b111 c
b1000 R
b0111 G
b10001000 @
1L
b000 ?
1N
b0011001100111010010101110100000101001001010101000101111101000110010011110101001001011111010000010100001101001011 Q
#36
0N
0L
#37
0&
1K
0)
0Y
b00010001 *
b000 c
b0000 R
0S
b1000 G
0J
b00010001 @
1L
1N
b010101110100000101001001010101000101111101000110010011110101001001011111010000010100001101001011 P
#38
0N
0L
#39
1N
12
1L
b001100000011101001010111010000010100100101010100010111110100011001001111010100100101111101000100010000010101010001000001 Q
#40
0N
0L
#41
0K
1H
1L
b0000 C
1N
02
b01010111010000010100100101010100010111110100011001001111010100100101111101000100010000010101010001000001 P
#42
0N
0L
#43
1=
b00010001 >
b00010001 :
1L
1"
1N
b00010001 %
#44
0N
0L
#45
b001 7
b0001 D
b00100010 :
b001 ;
b00010001 <
b00010001 d
b00100010 >
1L
1N
b00010001 B
b00100010 %
#46
0N
0L
#47
b001 l
b010 7
b00100010 8
b0010 D
b00110011 :
b001 b
b010 ;
b00100010 <
b00110011 >
b00100010 e
1L
1N
b00110011 %
#48
0N
0L
#49
b010 l
b011 7
b00110011 8
b0011 D
b01000100 :
b010 b
b011 ;
b00110011 <
b01000100 >
1L
b00110011 f
1N
b01000100 %
#50
0N
0L
#51
b011 l
b100 7
b01000100 8
b0100 D
b01010101 :
b011 b
b100 ;
b01000100 <
b01010101 >
1L
b01000100 g
1N
b01010101 %
#52
0N
0L
#53
b100 l
b101 7
b01010101 8
b0101 D
b01100110 :
b100 b
b101 ;
b01010101 <
b01100110 >
1L
1N
b01010101 h
b01100110 %
#54
0N
0L
#55
b101 l
b110 7
b01100110 8
b0110 D
b01110111 :
b101 b
b110 ;
b01100110 <
b01110111 >
1L
1N
b01100110 i
b01110111 %
#56
0N
0L
#57
b110 l
b111 7
b01110111 8
b0111 D
b10001000 :
1$
b110 b
b111 ;
b01110111 <
b10001000 >
1L
1N
b01110111 j
b0011000100111010010101110100000101001001010101000101111101010100010011110101111101010011010001010100111001000100 Q
b10001000 %
#58
0N
0L
#59
b000 7
b10001000 8
b111 b
b000 ;
b10001000 <
b01 -
0=
0.
0H
1L
1N
b010101110100000101001001010101000101111101010100010011110101111101010011010001010100111001000100 P
b10001000 k
b111 l
1I
b1000 D
1F
1S
0"
0$
#60
0N
0L
#61
b000 l
b00010001 8
1X
1Y
b000 b
b00010001 <
b0000 G
1L
1N
10
b00110010001110100101001101000101010011100100010001011111010100000100000101000011010010110100010101010100 Q
#62
0N
0L
#63
1&
0I
1(
0X
b001 A
b0001 R
1J
1L
1N
00
b0101001101000101010011100100010001011111010100000100000101000011010010110100010101010100 P
#64
0N
0L
#65
b001 m
0(
b00100010 *
b0010 R
b0001 G
1L
1N
b010 A
b00100010 B
#66
0N
0L
#67
b0010 G
1L
b010 m
b0011 R
1N
b00110011 *
b011 A
b00110011 B
#68
0N
0L
#69
b0011 G
1L
b011 m
b0100 R
1N
b01000100 *
b100 A
b01000100 B
#70
0N
0L
#71
b0100 G
1L
b100 m
b0101 R
1N
b01010101 *
b101 A
b01010101 B
#72
0N
0L
#73
b0101 G
1L
b101 m
b0110 R
1N
b01100110 *
b110 A
b01100110 B
#74
0N
0L
#75
b0110 G
1L
b110 m
b0111 R
1N
b01110111 *
b111 A
b01110111 B
#76
0N
0L
#77
b111 m
1)
b10001000 *
b1000 R
b0111 G
b10001000 B
1L
1N
b000 A
b0011001100111010010101110100000101001001010101000101111101000110010011110101001001011111010000010100001101001011 Q
#78
0N
0L
#79
0&
1K
b000 m
0)
0Y
b00010001 *
b0000 R
0S
b1000 G
0J
1L
1N
b010101110100000101001001010101000101111101000110010011110101001001011111010000010100001101001011 P
b00010001 B
#80
0N
0L
#81
1N
12
1L
b0011000100111010010101110100000101001001010101000101111101010100010011110101111101010011010001010100111001000100 Q
#82
0N
0L
#83
1I
0K
b0000 D
02
b00 -
1S
1L
1N
b010101110100000101001001010101000101111101010100010011110101111101010011010001010100111001000100 P
#84
0N
0L
#85
b0000 G
1&
1L
1)
1N
10
b0011001100111010010101110100000101001001010101000101111101000110010011110101001001011111010000010100001101001011 Q
#86
0N
0L
#87
0&
0I
1K
0)
12
0F
0S
1L
1N
00
b010101110100000101001001010101000101111101000110010011110101001001011111010000010100001101001011 P
b001100000011101001010111010000010100100101010100010111110100011001001111010100100101111101000100010000010101010001000001 Q
#88
0N
0L
#89
0K
1H
1L
1N
02
b01010111010000010100100101010100010111110100011001001111010100100101111101000100010000010101010001000001 P
#90
0N
0L
#91
b10101010 >
b10101010 :
1L
19
1"
1N
b10101010 %
#92
0N
0L
#93
b001 7
b10101010 8
b0001 C
b10111011 :
b001 ;
b10111011 >
b10101010 @
1L
1N
b10101010 Z
b10111011 %
#94
0N
0L
#95
b001 l
b010 7
b10111011 8
b0010 C
b11001100 :
b001 b
b010 ;
b00100010 <
b11001100 >
1L
1N
b10111011 [
b11001100 %
#96
0N
0L
#97
b010 l
b011 7
b11001100 8
b0011 C
b11011101 :
b010 b
b011 ;
b00110011 <
b11011101 >
1L
b0011000100111010010101110100000101001001010101000101111101010100010011110101111101010011010001010100111001000100 Q
1N
1$
b11001100 \
b11011101 %
#98
0N
0L
#99
b11011101 ]
b000 7
b11011101 8
1X
09
1Y
b10101010 *
b011 b
b000 ;
b01000100 <
b01 -
1.
0H
1L
1N
10
b010101110100000101001001010101000101111101010100010011110101111101010011010001010100111001000100 P
b00110010001110100101001101000101010011100100010001011111010100000100000101000011010010110100010101010100 Q
b011 l
1I
b0100 C
1E
1S
0"
0$
#100
0N
0L
#101
b000 l
1&
0I
b10101010 8
1(
0X
b000 b
b00010001 <
b0001 R
1J
1L
b001 ?
1N
00
b0101001101000101010011100100010001011111010100000100000101000011010010110100010101010100 P
#102
0N
0L
#103
0(
b10111011 *
b0010 R
b001 c
b0001 G
1L
b010 ?
1N
b10111011 @
#104
0N
0L
#105
b0010 G
b11001100 @
1L
b011 ?
b0011 R
1N
b11001100 *
b010 c
#106
0N
0L
#107
1)
b11011101 *
b011 c
b0100 R
b0011 G
b11011101 @
1L
b100 ?
1N
b0011001100111010010101110100000101001001010101000101111101000110010011110101001001011111010000010100001101001011 Q
#108
0N
0L
#109
0&
1K
0)
0Y
b01010101 *
b100 c
b0000 R
0S
b0100 G
0J
b01010101 @
1L
1N
b010101110100000101001001010101000101111101000110010011110101001001011111010000010100001101001011 P
#110
0N
0L
#111
1N
12
1L
b001100000011101001010111010000010100100101010100010111110100011001001111010100100101111101000100010000010101010001000001 Q
#112
0N
0L
#113
0K
1H
1L
b0000 C
1N
02
b01010111010000010100100101010100010111110100011001001111010100100101111101000100010000010101010001000001 P
#114
0N
0L
#115
1N
1L
0!
0"
0#
0$
b00000000 %
0&
0'
0(
0)
b00000000 *
0+
0,
b01 -
0.
0/
00
01
02
03
04
05
06
b000 7
b00000000 8
09
b00000000 :
b000 ;
b00000000 <
0=
b00000000 >
b000 ?
b00000000 @
b000 A
b00000000 B
b0000 C
b0000 D
0E
0F
b0000 G
0H
0I
0J
0K
0L
0M
0N
0O
b01010111010000010100100101010100010111110100011001001111010100100101111101000100010000010101010001000001 P
b001100000011101001010111010000010100100101010100010111110100011001001111010100100101111101000100010000010101010001000001 Q
b0000 R
0S
0T
0U
b00 V
0W
0X
0Y
b00000000 Z
b00000000 [
b00000000 \
b00000000 ]
b00000000 ^
b00000000 _
b00000000 `
b00000000 a
b000 b
b000 c
b00000000 d
b00000000 e
b00000000 f
b00000000 g
b00000000 h
b00000000 i
b00000000 j
b00000000 k
b000 l
b000 m
