doc/vcd/test_GetDescriptorHandlerBlockTest_test_all_descriptors_with_length.vcd
$scope module GetDescriptorHandlerBlock $end
$var wire 16 ! getdescriptorhandlerblock0 $end
$var wire 16 " getdescriptorhandlerblock1 $end
$var wire 1 # getdescriptorhandlerblock2 $end
$var wire 11 $ getdescriptorhandlerblock3 $end
$var wire 1 % getdescriptorhandlerblock_valid $end
$var wire 1 & getdescriptorhandlerblock_ready $end
$var wire 1 ' getdescriptorhandlerblock_first $end
$var wire 1 ( getdescriptorhandlerblock_last $end
$var wire 8 ) getdescriptorhandlerblock_payload $end
$var wire 1 * getdescriptorhandlerblock4 $end
$var wire 1 + sys_clk $end
$var wire 1 , sys_rst $end
$var wire 1 - usb_clk $end
$var wire 1 . usb_rst $end
$var wire 8 / type_number $end
$var wire 8 0 index $end
$var wire 7 1 adr $end
$var wire 32 2 dat_r $end
$var wire 16 3 length $end
$var wire 16 4 words_remaining $end
$var wire 7 5 position_in_stream $end
$var wire 16 6 bytes_sent $end
$var wire 16 7 descriptor_length $end
$var wire 7 8 descriptor_data_base_address $end
$var wire 1 9 on_first_packet $end
$var wire 1 : on_last_packet $end
$var wire 8 ; descr_idx $end
$var wire 9 < word_in_stream $end
$var wire 2 = byte_in_stream $end
$var wire 136 > fsm0 $end
$var wire 152 ? fsm1 $end
$var wire 16 @ bytes_sent_next_value0 $end
$var wire 1 A bytes_sent_next_value_ce0 $end
$var wire 7 B position_in_stream_next_value1 $end
$var wire 1 C position_in_stream_next_value_ce1 $end
$var wire 7 D descriptor_data_base_address_next_value2 $end
$var wire 1 E descriptor_data_base_address_next_value_ce2 $end
$var wire 16 F descriptor_length_next_value3 $end
$var wire 1 G descriptor_length_next_value_ce3 $end
$var wire 32 H mem_data_0 $end
$var wire 32 I mem_data_1 $end
$var wire 32 J mem_data_2 $end
$var wire 32 K mem_data_3 $end
$var wire 32 L mem_data_4 $end
$var wire 32 M mem_data_5 $end
$var wire 32 N mem_data_6 $end
$var wire 32 O mem_data_7 $end
$var wire 32 P mem_data_8 $end
$var wire 32 Q mem_data_9 $end
$var wire 32 R mem_data_10 $end
$var wire 32 S mem_data_11 $end
$var wire 32 T mem_data_12 $end
$var wire 32 U mem_data_13 $end
$var wire 32 V mem_data_14 $end
$var wire 32 W mem_data_15 $end
$var wire 32 X mem_data_16 $end
$var wire 32 Y mem_data_17 $end
$var wire 32 Z mem_data_18 $end
$var wire 32 [ mem_data_19 $end
$var wire 32 \ mem_data_20 $end
$var wire 32 ] mem_data_21 $end
$var wire 32 ^ mem_data_22 $end
$var wire 32 _ mem_data_23 $end
$var wire 32 ` mem_data_24 $end
$var wire 32 a mem_data_25 $end
$var wire 32 b mem_data_26 $end
$var wire 32 c mem_data_27 $end
$var wire 32 d mem_data_28 $end
$var wire 32 e mem_data_29 $end
$var wire 32 f mem_data_30 $end
$var wire 32 g mem_data_31 $end
$var wire 32 h mem_data_32 $end
$var wire 32 i mem_data_33 $end
$var wire 32 j mem_data_34 $end
$var wire 32 k mem_data_35 $end
$var wire 32 l mem_data_36 $end
$var wire 32 m mem_data_37 $end
$var wire 32 n mem_data_38 $end
$var wire 32 o mem_data_39 $end
$var wire 32 p mem_data_40 $end
$var wire 32 q mem_data_41 $end
$var wire 32 r mem_data_42 $end
$var wire 32 s mem_data_43 $end
$var wire 32 t mem_data_44 $end
$var wire 32 u mem_data_45 $end
$var wire 32 v mem_data_46 $end
$var wire 32 w mem_data_47 $end
$var wire 32 x mem_data_48 $end
$var wire 32 y mem_data_49 $end
$var wire 32 z mem_data_50 $end
$var wire 32 { mem_data_51 $end
$var wire 32 | mem_data_52 $end
$var wire 32 } mem_data_53 $end
$var wire 32 ~ mem_data_54 $end
$var wire 32 "! mem_data_55 $end
$var wire 32 "" mem_data_56 $end
$var wire 32 "# mem_data_57 $end
$var wire 32 "$ mem_data_58 $end
$var wire 32 "% mem_data_59 $end
$var wire 32 "& mem_data_60 $end
$var wire 32 "' mem_data_61 $end
$var wire 32 "( mem_data_62 $end
$var wire 32 ") mem_data_63 $end
$var wire 32 "* mem_data_64 $end
$var wire 32 "+ mem_data_65 $end
$var wire 32 ", mem_data_66 $end
$var wire 32 "- mem_data_67 $end
$var wire 32 ". mem_data_68 $end
$var wire 32 "/ mem_data_69 $end
$var wire 32 "0 mem_data_70 $end
$var wire 32 "1 mem_data_71 $end
$var wire 32 "2 mem_data_72 $end
$var wire 32 "3 mem_data_73 $end
$var wire 32 "4 mem_data_74 $end
$var wire 32 "5 mem_data_75 $end
$var wire 32 "6 mem_data_76 $end
$var wire 32 "7 mem_data_77 $end
$var wire 32 "8 mem_data_78 $end
$var wire 32 "9 mem_data_79 $end
$var wire 32 ": mem_data_80 $end
$var wire 32 "; mem_data_81 $end
$var wire 32 "< mem_data_82 $end
$var wire 32 "= mem_data_83 $end
$var wire 32 "> mem_data_84 $end
$var wire 32 "? mem_data_85 $end
$var wire 32 "@ mem_data_86 $end
$var wire 32 "A mem_data_87 $end
$var wire 32 "B mem_data_88 $end
$var wire 32 "C mem_data_89 $end
$var wire 32 "D mem_data_90 $end
$var wire 32 "E mem_data_91 $end
$var wire 32 "F mem_data_92 $end
$var wire 32 "G mem_data_93 $end
$var wire 32 "H mem_data_94 $end
$var wire 32 "I mem_data_95 $end
$var wire 32 "J mem_data_96 $end
$var wire 32 "K mem_data_97 $end
$var wire 32 "L mem_data_98 $end
$var wire 32 "M mem_data_99 $end
$var wire 32 "N mem_data_100 $end
$var wire 32 "O mem_data_101 $end
$var wire 32 "P mem_data_102 $end
$var wire 32 "Q mem_data_103 $end
$var wire 32 "R mem_data_104 $end
$var wire 7 "S adr_reg $end
$enddefinitions $end
$timescale 17ns $end
$dumpvars
$end
#1
b0000000000000000 !
b0000000000000000 "
0#
b00000000000 $
0%
0&
0'
0(
b00000000 )
0*
0+
0,
0-
0.
b00000000 /
b00000000 0
b0000000 1
b00000000000000000000000000000000 2
b0000000000000000 3
b0000000000000000 4
b0000000 5
b0000000000000000 6
b0000000000000000 7
b0000000 8
09
0:
b00000000 ;
b000000000 <
b00 =
b01001001010001000100110001000101 >
b001100000011101001001001010001000100110001000101 ?
b0000000000000000 @
0A
b0000000 B
0C
b0000000 D
0E
b0000000000000000 F
0G
b00000000000000000000000000000000 H
b00000000000000010000000010001000 I
b00000000000000010000000010001100 J
b00000000000001010000000010010000 K
b00000000000000000000000000000000 L
b00000000000000000000000000000000 M
b00000000000000000000000000000000 N
b00000000000000000000000000000000 O
b00000000000000000000000000000000 P
b00000000000000000000000000000000 Q
b00000000000000000000000000000000 R
b00000000000000000000000000000000 S
b00000000000000000000000000000000 T
b00000000000000000000000000000000 U
b00000000000000000000000000000000 V
b00000000000000000000000000000000 W
b00000000000000000000000000000000 X
b00000000000000000000000000000000 Y
b00000000000000000000000000000000 Z
b00000000000000000000000000000000 [
b00000000000000000000000000000000 \
b00000000000000000000000000000000 ]
b00000000000000000000000000000000 ^
b00000000000000000000000000000000 _
b00000000000000000000000000000000 `
b00000000000000000000000000000000 a
b00000000000000000000000000000000 b
b00000000000000000000000000000000 c
b00000000000000000000000000000000 d
b00000000000000000000000000000000 e
b00000000000000000000000000000000 f
b00000000000000000000000000000000 g
b00000000000000000000000000000000 h
b00000000000000010000000010100100 i
b00000000000100100000000010101000 j
b00000000000110010000000010111100 k
b00000000000001000000000011011000 l
b00000000000110100000000011011100 m
b00000000000100000000000011111000 n
b00000000011100000000000100001000 o
b00000000000111100000000101111000 p
b00000000000010010000000110011000 q
b00010010000000010000000000000010 r
b00000000000000000000000001000000 s
b00110100000100100110011101000101 t
b00000000000000000000000100000010 u
b00000011000000010000000000000000 v
b00001001000000100001100100000000 w
b00000001000000010000000011000000 x
b00110010000010010000010000000000 y
b00000000000000010000001000000010 z
b00000001000000000000011100000101 {
b10000001000000110100000000000000 |
b00001011000000000000000000000000 }
b00000100000000110000100100000100 ~
b00011010000000110100110100000000 "!
b01100001000000000110111000000000 ""
b01110101000000000110011000000000 "#
b01100001000000000110001100000000 "$
b01110100000000000111010100000000 "%
b01110010000000000110010100000000 "&
b01110010000000000000000000000000 "'
b00010000000000110101000000000000 "(
b01110010000000000110111100000000 ")
b01100100000000000111010100000000 "*
b01100011000000000111010000000000 "+
b01110000000000110101010000000000 ",
b01101000000000000110100100000000 "-
b01110011000000000101001100000000 ".
b01100101000000000111001000000000 "/
b01101001000000000110000100000000 "0
b01101100000000000100111000000000 "1
b01110101000000000110110100000000 "2
b01100010000000000110010100000000 "3
b01110010000000000100100100000000 "4
b01110011000000000101001000000000 "5
b01100101000000000111001100000000 "6
b01110101000000000110110000000000 "7
b01110100000000000111001100000000 "8
b01001001000000000110111000000000 "9
b01000001000000000100010000000000 ":
b01100101000000000111001100000000 ";
b01100011000000000111001000000000 "<
b01101001000000000111000000000000 "=
b01110100000000000110111100000000 ">
b01110010000000000100110000000000 "?
b01101111000000000110111000000000 "@
b01100111000000000110010100000000 "A
b01110010000000000101010000000000 "B
b01101000000000000110000100000000 "C
b01101110000000000011011000000000 "D
b00110100000000000100001000000000 "E
b01111001000000000111010000000000 "F
b01100101000000000111001100000000 "G
b00011110000000110110111000000000 "H
b01101111000000000110111000000000 "I
b01100011000000000110111100000000 "J
b01101110000000000111001100000000 "K
b01100101000000000110001100000000 "L
b01110101000000000111010000000000 "M
b01101001000000000111011000000000 "N
b01100101000000000000000000000000 "O
b00001001001000010000000100000001 "P
b00000000000000010010001000000000 "Q
b00110010000000000000000000000000 "R
b0000000 "S
19
1:
1A
#2
#3
1+
1-
b11111111 ;
#4
0+
0-
#5
1&
b0000000000001000 4
1+
1-
b00000010 /
b0000001000000000 !
b0000000000001000 "
b0000010 1
1#
b00110001001110100101001101010100010000010101001001010100 ?
#6
0+
0-
#7
b0000000000001000 3
0A
1C
1+
1-
0:
b0000010 "S
0#
b00000000000000010000000010001100 2
b0101001101010100010000010101001001010100 >
b00000000 ;
b00110010001110100100110001001111010011110100101101010101010100000101111101010100010110010101000001000101 ?
#8
0+
0-
#9
b00110011001110100100110001001111010011110100101101010101010100000101111101000100010001010101001101000011010100100100100101010000010101000100111101010010 ?
1+
b0100110001001111010011110100101101010101010100000101111101010100010110010101000001000101 >
0C
1-
b0100011 1
#10
0+
0-
#11
1G
b00000000000110010000000010111100 2
1+
1-
b0011010000111010010100110100010101001110010001000101111101000100010001010101001101000011010100100100100101010000010101000100111101010010 ?
b0100011 "S
b0101111 D
1E
b0100110001001111010011110100101101010101010100000101111101000100010001010101001101000011010100100100100101010000010101000100111101010010 >
b0000000000011001 F
b0101111 1
#12
0+
0-
#13
0G
b0000000000011001 7
b0101111 8
b010100110100010101001110010001000101111101000100010001010101001101000011010100100100100101010000010101000100111101010010 >
1%
b0000000000000001 @
1A
1'
b00001001000000100001100100000000 2
b00001001 )
b0000001 B
1C
1+
1-
b0101111 "S
b0000000 D
0E
b0000000000000000 F
#14
0+
0-
#15
b0000000000000010 @
0'
b00000010 )
b0000010 B
b0000001 5
1+
b0000000000000001 6
1-
09
b01 =
#16
0+
0-
#17
b0000000000000011 @
b00011001 )
b0000011 B
b0000010 5
1+
b0000000000000010 6
1-
b10 =
#18
0+
0-
#19
b0000000000000100 @
b00000000 )
b0000100 B
b0000011 5
1+
b0000000000000011 6
1-
b0110000 1
b11 =
#20
0+
0-
#21
b0000000000000101 @
b00000001 )
b0000101 B
b0000100 5
1+
b0000000000000100 6
1-
b0110000 "S
b00000001000000010000000011000000 2
b000000001 <
b00 =
#22
0+
0-
#23
b0000000000000110 @
b0000110 B
b0000101 5
1+
b0000000000000101 6
1-
b01 =
#24
0+
0-
#25
b0000000000000111 @
b00000000 )
b0000111 B
b0000110 5
1+
b0000000000000110 6
1-
b10 =
#26
0+
0-
#27
1G
b0000111 5
b0000000000000111 6
1:
b001100000011101001001001010001000100110001000101 ?
b0000000000000000 @
0A
1(
b11000000 )
b0000000 B
0C
1+
1-
1E
b11 =
#28
0+
0-
#29
0G
1A
0(
b00000000 )
1+
b0000000000000000 7
1-
b0000000 8
b0000010 1
0E
b01001001010001000100110001000101 >
0%
#30
0+
0-
#31
0&
b00000000000000010000000010001100 2
0:
b0000010 "S
1+
b0000000000000000 6
1-
#32
0+
0-
#33
1+
1#
b00110001001110100101001101010100010000010101001001010100 ?
1-
#34
0+
0-
#35
0A
b00110010001110100100110001001111010011110100101101010101010100000101111101010100010110010101000001000101 ?
1C
1+
b0101001101010100010000010101001001010100 >
0#
1-
#36
0+
0-
#37
b0000000 5
1+
0C
1-
19
b0100011 1
b0100110001001111010011110100101101010101010100000101111101010100010110010101000001000101 >
b000000000 <
b00110011001110100100110001001111010011110100101101010101010100000101111101000100010001010101001101000011010100100100100101010000010101000100111101010010 ?
b00 =
#38
0+
0-
#39
1G
b00000000000110010000000010111100 2
1+
1-
b0011010000111010010100110100010101001110010001000101111101000100010001010101001101000011010100100100100101010000010101000100111101010010 ?
b0100011 "S
b0101111 D
1E
b0100110001001111010011110100101101010101010100000101111101000100010001010101001101000011010100100100100101010000010101000100111101010010 >
b0000000000011001 F
b0101111 1
#40
0+
0-
#41
0G
1'
b00001001000000100001100100000000 2
b00001001 )
1+
b0000000000011001 7
1-
b0101111 8
1%
b0101111 "S
b0000000 D
0E
b010100110100010101001110010001000101111101000100010001010101001101000011010100100100100101010000010101000100111101010010 >
b0000000000000000 F
#42
0+
0-
#43
1+
1-
#44
0+
0-
#45
1+
1-
#46
0+
0-
#47
1+
1-
#48
0+
0-
#49
1+
1-
#50
0+
0-
#51
1+
1-
#52
0+
0-
#53
1+
1-
#54
0+
0-
#55
1+
1-
#56
0+
0-
#57
1+
1-
#58
0+
0-
#59
1+
1-
#60
0+
0-
#61
1&
b0000000000000001 @
1A
b0000001 B
1C
1+
1-
#62
0+
0-
#63
b0000000000000010 @
0'
b00000010 )
b0000010 B
b0000001 5
1+
b0000000000000001 6
1-
09
b01 =
#64
0+
0-
#65
b0000000000000011 @
b00011001 )
b0000011 B
b0000010 5
1+
b0000000000000010 6
1-
b10 =
#66
0+
0-
#67
b0000000000000100 @
b00000000 )
b0000100 B
b0000011 5
1+
b0000000000000011 6
1-
b0110000 1
b11 =
#68
0+
0-
#69
b0000000000000101 @
b00000001 )
b0000101 B
b0000100 5
1+
b0000000000000100 6
1-
b0110000 "S
b00000001000000010000000011000000 2
b000000001 <
b00 =
#70
0+
0-
#71
b0000000000000110 @
b0000110 B
b0000101 5
1+
b0000000000000101 6
1-
b01 =
#72
0+
0-
#73
b0000000000000111 @
b00000000 )
b0000111 B
b0000110 5
1+
b0000000000000110 6
1-
b10 =
#74
0+
0-
#75
1G
b0000111 5
b0000000000000111 6
1:
b001100000011101001001001010001000100110001000101 ?
b0000000000000000 @
0A
1(
b11000000 )
b0000000 B
0C
1+
1-
1E
b11 =
#76
0+
0-
#77
0G
1A
0(
b00000000 )
1+
b0000000000000000 7
1-
b0000000 8
b0000010 1
0E
b01001001010001000100110001000101 >
0%
#78
0+
0-
#79
0&
b00000000000000010000000010001100 2
0:
b0000010 "S
1+
b0000000000000000 6
1-
#80
0+
0-
#81
1&
1+
1-
b00000011 /
b00000001 0
b0000001100000001 !
b0000011 1
1#
b00110001001110100101001101010100010000010101001001010100 ?
#82
0+
0-
#83
0A
1C
1+
1-
b0000011 "S
0#
b00000000000001010000000010010000 2
b0101001101010100010000010101001001010100 >
b00000001 ;
b00110010001110100100110001001111010011110100101101010101010100000101111101010100010110010101000001000101 ?
#84
0+
0-
#85
b0000000 5
1+
0C
1-
19
b0100101 1
b0100110001001111010011110100101101010101010100000101111101010100010110010101000001000101 >
b000000000 <
b00110011001110100100110001001111010011110100101101010101010100000101111101000100010001010101001101000011010100100100100101010000010101000100111101010010 ?
b00 =
#86
0+
0-
#87
1G
b00000000000110100000000011011100 2
1+
1-
b0011010000111010010100110100010101001110010001000101111101000100010001010101001101000011010100100100100101010000010101000100111101010010 ?
b0100101 "S
b0110111 1
1E
b0100110001001111010011110100101101010101010100000101111101000100010001010101001101000011010100100100100101010000010101000100111101010010 >
b0110111 D
b0000000000011010 F
#88
0+
0-
#89
0G
b0000000000011010 7
b0110111 8
b010100110100010101001110010001000101111101000100010001010101001101000011010100100100100101010000010101000100111101010010 >
1%
b0000000000000001 @
1A
1'
b00011010000000110100110100000000 2
b00011010 )
b0000001 B
1C
1+
1-
b0110111 "S
b0000000 D
0E
b0000000000000000 F
#90
0+
0-
#91
b0000000000000010 @
0'
b00000011 )
b0000010 B
b0000001 5
1+
b0000000000000001 6
1-
09
b01 =
#92
0+
0-
#93
b0000000000000011 @
b01001101 )
b0000011 B
b0000010 5
1+
b0000000000000010 6
1-
b10 =
#94
0+
0-
#95
b0000000000000100 @
b00000000 )
b0000100 B
b0000011 5
1+
b0000000000000011 6
1-
b0111000 1
b11 =
#96
0+
0-
#97
b0000000000000101 @
b01100001 )
b0000101 B
b0000100 5
1+
b0000000000000100 6
1-
b0111000 "S
b01100001000000000110111000000000 2
b000000001 <
b00 =
#98
0+
0-
#99
b0000000000000110 @
b00000000 )
b0000110 B
b0000101 5
1+
b0000000000000101 6
1-
b01 =
#100
0+
0-
#101
b0000000000000111 @
b01101110 )
b0000111 B
b0000110 5
1+
b0000000000000110 6
1-
b10 =
#102
0+
0-
#103
1G
b0000111 5
b0000000000000111 6
1:
b001100000011101001001001010001000100110001000101 ?
b0000000000000000 @
0A
1(
b00000000 )
b0000000 B
0C
1+
1-
1E
b11 =
#104
0+
0-
#105
0G
1A
0(
1+
b0000000000000000 7
1-
b0000000 8
b0000011 1
0E
b01001001010001000100110001000101 >
0%
#106
0+
0-
#107
0&
b00000000000001010000000010010000 2
0:
b0000011 "S
1+
b0000000000000000 6
1-
#108
0+
0-
#109
1+
1#
b00110001001110100101001101010100010000010101001001010100 ?
1-
#110
0+
0-
#111
0A
b00110010001110100100110001001111010011110100101101010101010100000101111101010100010110010101000001000101 ?
1C
1+
b0101001101010100010000010101001001010100 >
0#
1-
#112
0+
0-
#113
b0000000 5
1+
0C
1-
19
b0100101 1
b0100110001001111010011110100101101010101010100000101111101010100010110010101000001000101 >
b000000000 <
b00110011001110100100110001001111010011110100101101010101010100000101111101000100010001010101001101000011010100100100100101010000010101000100111101010010 ?
b00 =
#114
0+
0-
#115
1G
b00000000000110100000000011011100 2
1+
1-
b0011010000111010010100110100010101001110010001000101111101000100010001010101001101000011010100100100100101010000010101000100111101010010 ?
b0100101 "S
b0110111 1
1E
b0100110001001111010011110100101101010101010100000101111101000100010001010101001101000011010100100100100101010000010101000100111101010010 >
b0110111 D
b0000000000011010 F
#116
0+
0-
#117
0G
1'
b00011010000000110100110100000000 2
b00011010 )
1+
b0000000000011010 7
1-
b0110111 8
1%
b0110111 "S
b0000000 D
0E
b010100110100010101001110010001000101111101000100010001010101001101000011010100100100100101010000010101000100111101010010 >
b0000000000000000 F
#118
0+
0-
#119
1+
1-
#120
0+
0-
#121
1+
1-
#122
0+
0-
#123
1+
1-
#124
0+
0-
#125
1+
1-
#126
0+
0-
#127
1+
1-
#128
0+
0-
#129
1+
1-
#130
0+
0-
#131
1+
1-
#132
0+
0-
#133
1+
1-
#134
0+
0-
#135
1+
1-
#136
0+
0-
#137
1&
b0000000000000001 @
1A
b0000001 B
1C
1+
1-
#138
0+
0-
#139
b0000000000000010 @
0'
b00000011 )
b0000010 B
b0000001 5
1+
b0000000000000001 6
1-
09
b01 =
#140
0+
0-
#141
b0000000000000011 @
b01001101 )
b0000011 B
b0000010 5
1+
b0000000000000010 6
1-
b10 =
#142
0+
0-
#143
b0000000000000100 @
b00000000 )
b0000100 B
b0000011 5
1+
b0000000000000011 6
1-
b0111000 1
b11 =
#144
0+
0-
#145
b0000000000000101 @
b01100001 )
b0000101 B
b0000100 5
1+
b0000000000000100 6
1-
b0111000 "S
b01100001000000000110111000000000 2
b000000001 <
b00 =
#146
0+
0-
#147
b0000000000000110 @
b00000000 )
b0000110 B
b0000101 5
1+
b0000000000000101 6
1-
b01 =
#148
0+
0-
#149
b0000000000000111 @
b01101110 )
b0000111 B
b0000110 5
1+
b0000000000000110 6
1-
b10 =
#150
0+
0-
#151
1G
b0000111 5
b0000000000000111 6
1:
b001100000011101001001001010001000100110001000101 ?
b0000000000000000 @
0A
1(
b00000000 )
b0000000 B
0C
1+
1-
1E
b11 =
#152
0+
0-
#153
0G
1A
0(
1+
b0000000000000000 7
1-
b0000000 8
b0000011 1
0E
b01001001010001000100110001000101 >
0%
#154
0+
0-
#155
0&
b00000000000001010000000010010000 2
0:
b0000011 "S
1+
b0000000000000000 6
1-
#156
0+
0-
#157
1&
b00000010 0
b00110001001110100101001101010100010000010101001001010100 ?
b0000001100000010 !
1+
1#
1-
#158
0+
0-
#159
0A
b00110010001110100100110001001111010011110100101101010101010100000101111101010100010110010101000001000101 ?
b00000010 ;
1C
1+
b0101001101010100010000010101001001010100 >
0#
1-
#160
0+
0-
#161
b0000000 5
1+
0C
1-
19
b0100110 1
b0100110001001111010011110100101101010101010100000101111101010100010110010101000001000101 >
b000000000 <
b00110011001110100100110001001111010011110100101101010101010100000101111101000100010001010101001101000011010100100100100101010000010101000100111101010010 ?
b00 =
#162
0+
0-
#163
1G
b00000000000100000000000011111000 2
1+
1-
b0011010000111010010100110100010101001110010001000101111101000100010001010101001101000011010100100100100101010000010101000100111101010010 ?
b0100110 "S
b0111110 1
1E
b0100110001001111010011110100101101010101010100000101111101000100010001010101001101000011010100100100100101010000010101000100111101010010 >
b0111110 D
b0000000000010000 F
#164
0+
0-
#165
0G
b0000000000010000 7
b0111110 8
b010100110100010101001110010001000101111101000100010001010101001101000011010100100100100101010000010101000100111101010010 >
1%
b0000000000000001 @
1A
1'
b00010000000000110101000000000000 2
b00010000 )
b0000001 B
1C
1+
1-
b0111110 "S
b0000000 D
0E
b0000000000000000 F
#166
0+
0-
#167
b0000000000000010 @
0'
b00000011 )
b0000010 B
b0000001 5
1+
b0000000000000001 6
1-
09
b01 =
#168
0+
0-
#169
b0000000000000011 @
b01010000 )
b0000011 B
b0000010 5
1+
b0000000000000010 6
1-
b10 =
#170
0+
0-
#171
b0000000000000100 @
b00000000 )
b0000100 B
b0000011 5
1+
b0000000000000011 6
1-
b0111111 1
b11 =
#172
0+
0-
#173
b0000000000000101 @
b01110010 )
b0000101 B
b0000100 5
1+
b0000000000000100 6
1-
b0111111 "S
b01110010000000000110111100000000 2
b000000001 <
b00 =
#174
0+
0-
#175
b0000000000000110 @
b00000000 )
b0000110 B
b0000101 5
1+
b0000000000000101 6
1-
b01 =
#176
0+
0-
#177
b0000000000000111 @
b01101111 )
b0000111 B
b0000110 5
1+
b0000000000000110 6
1-
b10 =
#178
0+
0-
#179
1G
b0000111 5
b0000000000000111 6
1:
b001100000011101001001001010001000100110001000101 ?
b0000000000000000 @
0A
1(
b00000000 )
b0000000 B
0C
1+
1-
1E
b11 =
#180
0+
0-
#181
0G
1A
0(
1+
b0000000000000000 7
1-
b0000000 8
b0000011 1
0E
b01001001010001000100110001000101 >
0%
#182
0+
0-
#183
0&
b00000000000001010000000010010000 2
0:
b0000011 "S
1+
b0000000000000000 6
1-
#184
0+
0-
#185
1+
1#
b00110001001110100101001101010100010000010101001001010100 ?
1-
#186
0+
0-
#187
0A
b00110010001110100100110001001111010011110100101101010101010100000101111101010100010110010101000001000101 ?
1C
1+
b0101001101010100010000010101001001010100 >
0#
1-
#188
0+
0-
#189
b0000000 5
1+
0C
1-
19
b0100110 1
b0100110001001111010011110100101101010101010100000101111101010100010110010101000001000101 >
b000000000 <
b00110011001110100100110001001111010011110100101101010101010100000101111101000100010001010101001101000011010100100100100101010000010101000100111101010010 ?
b00 =
#190
0+
0-
#191
1G
b00000000000100000000000011111000 2
1+
1-
b0011010000111010010100110100010101001110010001000101111101000100010001010101001101000011010100100100100101010000010101000100111101010010 ?
b0100110 "S
b0111110 1
1E
b0100110001001111010011110100101101010101010100000101111101000100010001010101001101000011010100100100100101010000010101000100111101010010 >
b0111110 D
b0000000000010000 F
#192
0+
0-
#193
0G
1'
b00010000000000110101000000000000 2
b00010000 )
1+
b0000000000010000 7
1-
b0111110 8
1%
b0111110 "S
b0000000 D
0E
b010100110100010101001110010001000101111101000100010001010101001101000011010100100100100101010000010101000100111101010010 >
b0000000000000000 F
#194
0+
0-
#195
1+
1-
#196
0+
0-
#197
1+
1-
#198
0+
0-
#199
1+
1-
#200
0+
0-
#201
1+
1-
#202
0+
0-
#203
1+
1-
#204
0+
0-
#205
1+
1-
#206
0+
0-
#207
1+
1-
#208
0+
0-
#209
1+
1-
#210
0+
0-
#211
1+
1-
#212
0+
0-
#213
1&
b0000000000000001 @
1A
b0000001 B
1C
1+
1-
#214
0+
0-
#215
b0000000000000010 @
0'
b00000011 )
b0000010 B
b0000001 5
1+
b0000000000000001 6
1-
09
b01 =
#216
0+
0-
#217
b0000000000000011 @
b01010000 )
b0000011 B
b0000010 5
1+
b0000000000000010 6
1-
b10 =
#218
0+
0-
#219
b0000000000000100 @
b00000000 )
b0000100 B
b0000011 5
1+
b0000000000000011 6
1-
b0111111 1
b11 =
#220
0+
0-
#221
b0000000000000101 @
b01110010 )
b0000101 B
b0000100 5
1+
b0000000000000100 6
1-
b0111111 "S
b01110010000000000110111100000000 2
b000000001 <
b00 =
#222
0+
0-
#223
b0000000000000110 @
b00000000 )
b0000110 B
b0000101 5
1+
b0000000000000101 6
1-
b01 =
#224
0+
0-
#225
b0000000000000111 @
b01101111 )
b0000111 B
b0000110 5
1+
b0000000000000110 6
1-
b10 =
#226
0+
0-
#227
1G
b0000111 5
b0000000000000111 6
1:
b001100000011101001001001010001000100110001000101 ?
b0000000000000000 @
0A
1(
b00000000 )
b0000000 B
0C
1+
1-
1E
b11 =
#228
0+
0-
#229
0G
1A
0(
1+
b0000000000000000 7
1-
b0000000 8
b0000011 1
0E
b01001001010001000100110001000101 >
0%
#230
0+
0-
#231
0&
b00000000000001010000000010010000 2
0:
b0000011 "S
1+
b0000000000000000 6
1-
#232
0+
0-
#233
1&
b00000011 0
b00110001001110100101001101010100010000010101001001010100 ?
b0000001100000011 !
1+
1#
1-
#234
0+
0-
#235
0A
b00110010001110100100110001001111010011110100101101010101010100000101111101010100010110010101000001000101 ?
b00000011 ;
1C
1+
b0101001101010100010000010101001001010100 >
0#
1-
#236
0+
0-
#237
b0000000 5
1+
0C
1-
19
b0100111 1
b0100110001001111010011110100101101010101010100000101111101010100010110010101000001000101 >
b000000000 <
b00110011001110100100110001001111010011110100101101010101010100000101111101000100010001010101001101000011010100100100100101010000010101000100111101010010 ?
b00 =
#238
0+
0-
#239
1G
b00000000011100000000000100001000 2
1+
1-
b0011010000111010010100110100010101001110010001000101111101000100010001010101001101000011010100100100100101010000010101000100111101010010 ?
b0100111 "S
b1000010 1
1E
b0100110001001111010011110100101101010101010100000101111101000100010001010101001101000011010100100100100101010000010101000100111101010010 >
b1000010 D
b0000000001110000 F
#240
0+
0-
#241
0G
b0000000001110000 7
b1000010 8
b010100110100010101001110010001000101111101000100010001010101001101000011010100100100100101010000010101000100111101010010 >
1%
b0000000000000001 @
1A
1'
b01110000000000110101010000000000 2
b01110000 )
b0000001 B
1C
1+
1-
b1000010 "S
b0000000 D
0E
b0000000000000000 F
#242
0+
0-
#243
b0000000000000010 @
0'
b00000011 )
b0000010 B
b0000001 5
1+
b0000000000000001 6
1-
09
b01 =
#244
0+
0-
#245
b0000000000000011 @
b01010100 )
b0000011 B
b0000010 5
1+
b0000000000000010 6
1-
b10 =
#246
0+
0-
#247
b0000000000000100 @
b00000000 )
b0000100 B
b0000011 5
1+
b0000000000000011 6
1-
b1000011 1
b11 =
#248
0+
0-
#249
b0000000000000101 @
b01101000 )
b0000101 B
b0000100 5
1+
b0000000000000100 6
1-
b1000011 "S
b01101000000000000110100100000000 2
b000000001 <
b00 =
#250
0+
0-
#251
b0000000000000110 @
b00000000 )
b0000110 B
b0000101 5
1+
b0000000000000101 6
1-
b01 =
#252
0+
0-
#253
b0000000000000111 @
b01101001 )
b0000111 B
b0000110 5
1+
b0000000000000110 6
1-
b10 =
#254
0+
0-
#255
1G
b0000111 5
b0000000000000111 6
1:
b001100000011101001001001010001000100110001000101 ?
b0000000000000000 @
0A
1(
b00000000 )
b0000000 B
0C
1+
1-
1E
b11 =
#256
0+
0-
#257
0G
1A
0(
1+
b0000000000000000 7
1-
b0000000 8
b0000011 1
0E
b01001001010001000100110001000101 >
0%
#258
0+
0-
#259
0&
b00000000000001010000000010010000 2
0:
b0000011 "S
1+
b0000000000000000 6
1-
#260
0+
0-
#261
1+
1#
b00110001001110100101001101010100010000010101001001010100 ?
1-
#262
0+
0-
#263
0A
b00110010001110100100110001001111010011110100101101010101010100000101111101010100010110010101000001000101 ?
1C
1+
b0101001101010100010000010101001001010100 >
0#
1-
#264
0+
0-
#265
b0000000 5
1+
0C
1-
19
b0100111 1
b0100110001001111010011110100101101010101010100000101111101010100010110010101000001000101 >
b000000000 <
b00110011001110100100110001001111010011110100101101010101010100000101111101000100010001010101001101000011010100100100100101010000010101000100111101010010 ?
b00 =
#266
0+
0-
#267
1G
b00000000011100000000000100001000 2
1+
1-
b0011010000111010010100110100010101001110010001000101111101000100010001010101001101000011010100100100100101010000010101000100111101010010 ?
b0100111 "S
b1000010 1
1E
b0100110001001111010011110100101101010101010100000101111101000100010001010101001101000011010100100100100101010000010101000100111101010010 >
b1000010 D
b0000000001110000 F
#268
0+
0-
#269
0G
1'
b01110000000000110101010000000000 2
b01110000 )
1+
b0000000001110000 7
1-
b1000010 8
1%
b1000010 "S
b0000000 D
0E
b010100110100010101001110010001000101111101000100010001010101001101000011010100100100100101010000010101000100111101010010 >
b0000000000000000 F
#270
0+
0-
#271
1+
1-
#272
0+
0-
#273
1+
1-
