doc/vcd/test_USBInTransferManagerTest_test_normal_transfer.vcd
$scope module USBInTransferManager $end
$var wire 1 ! active $end
$var wire 1 " transfer_stream_valid $end
$var wire 1 # transfer_stream_ready $end
$var wire 1 $ transfer_stream_last $end
$var wire 8 % transfer_stream_payload $end
$var wire 1 & packet_stream_valid $end
$var wire 1 ' packet_stream_ready $end
$var wire 1 ( packet_stream_first $end
$var wire 1 ) packet_stream_last $end
$var wire 8 * packet_stream_payload $end
$var wire 1 + flush $end
$var wire 1 , discard $end
$var wire 2 - data_pid $end
$var wire 1 . buffer_toggle $end
$var wire 1 / tokenizer_new_token $end
$var wire 1 0 tokenizer_ready_for_response $end
$var wire 1 1 tokenizer_is_in $end
$var wire 1 2 handshakes_in_ack $end
$var wire 1 3 handshakes_out_nak $end
$var wire 1 4 generate_zlps $end
$var wire 1 5 start_with_data1 $end
$var wire 1 6 reset_sequence $end
$var wire 3 7 memory0_adr0 $end
$var wire 8 8 memory0_dat_r0 $end
$var wire 1 9 memory0_we $end
$var wire 8 : memory0_dat_w $end
$var wire 3 ; memory1_adr0 $end
$var wire 8 < memory1_dat_r0 $end
$var wire 1 = memory1_we $end
$var wire 8 > memory1_dat_w $end
$var wire 3 ? memory0_adr1 $end
$var wire 8 @ memory0_dat_r1 $end
$var wire 3 A memory1_adr1 $end
$var wire 8 B memory1_dat_r1 $end
$var wire 4 C fill_count_0 $end
$var wire 4 D fill_count_1 $end
$var wire 1 E stream_ended_in_buffer0 $end
$var wire 1 F stream_ended_in_buffer1 $end
$var wire 4 G send_position $end
$var wire 1 H is_ongoing0 $end
$var wire 1 I is_ongoing1 $end
$var wire 1 J is_ongoing2 $end
$var wire 1 K is_ongoing3 $end
$var wire 1 L sys_clk $end
$var wire 1 M sys_rst $end
$var wire 1 N usb_clk $end
$var wire 1 O usb_rst $end
$var wire 104 P fsm0 $end
$var wire 120 Q fsm1 $end
$var wire 4 R send_position_next_value0 $end
$var wire 1 S send_position_next_value_ce0 $end
$var wire 1 T fsm_next_value $end
$var wire 1 U fsm_next_value_ce $end
$var wire 2 V data_pid_next_value1 $end
$var wire 1 W data_pid_next_value_ce1 $end
$var wire 1 X packet_stream_first_next_value2 $end
$var wire 1 Y packet_stream_first_next_value_ce2 $end
$var wire 8 Z transmit_buffer_0_data_0 $end
$var wire 8 [ transmit_buffer_0_data_1 $end
$var wire 8 \ transmit_buffer_0_data_2 $end
$var wire 8 ] transmit_buffer_0_data_3 $end
$var wire 8 ^ transmit_buffer_0_data_4 $end
$var wire 8 _ transmit_buffer_0_data_5 $end
$var wire 8 ` transmit_buffer_0_data_6 $end
$var wire 8 a transmit_buffer_0_data_7 $end
$var wire 3 b adr_reg0 $end
$var wire 3 c adr_reg1 $end
$var wire 8 d transmit_buffer_1_data_0 $end
$var wire 8 e transmit_buffer_1_data_1 $end
$var wire 8 f transmit_buffer_1_data_2 $end
$var wire 8 g transmit_buffer_1_data_3 $end
$var wire 8 h transmit_buffer_1_data_4 $end
$var wire 8 i transmit_buffer_1_data_5 $end
$var wire 8 j transmit_buffer_1_data_6 $end
$var wire 8 k transmit_buffer_1_data_7 $end
$var wire 3 l adr_reg2 $end
$var wire 3 m adr_reg3 $end
$enddefinitions $end
$timescale 1ns $end
$dumpvars
$end
#2
0!
0"
0#
0$
b00000000 %
0&
0'
0(
0)
b00000000 *
0+
0,
b01 -
0.
0/
00
01
02
03
04
05
06
b000 7
b00000000 8
09
b00000000 :
b000 ;
b00000000 <
0=
b00000000 >
b000 ?
b00000000 @
b000 A
b00000000 B
b0000 C
b0000 D
0E
0F
b0000 G
0H
0I
0J
0K
0L
0M
0N
0O
b01010111010000010100100101010100010111110100011001001111010100100101111101000100010000010101010001000001 P
b001100000011101001010111010000010100100101010100010111110100011001001111010100100101111101000100010000010101010001000001 Q
b0000 R
0S
0T
0U
b00 V
0W
0X
0Y
b00000000 Z
b00000000 [
b00000000 \
b00000000 ]
b00000000 ^
b00000000 _
b00000000 `
b00000000 a
b000 b
b000 c
b00000000 d
b00000000 e
b00000000 f
b00000000 g
b00000000 h
b00000000 i
b00000000 j
b00000000 k
b000 l
b000 m
1#
1H
#4
#6
1L
1!
1"
1N
b00010001 %
11
1'
19
b00010001 :
b00010001 >
#8
0L
0N
#10
1L
1N
b00010001 @
b00010001 Z
b00100010 %
b001 7
b00010001 8
b0001 C
b00100010 :
b001 ;
b00100010 >
#12
0L
0N
#14
1L
1N
b00100010 [
b00110011 %
b001 l
b010 7
b00100010 8
b0010 C
b00110011 :
b001 b
b010 ;
b00110011 >
#16
0L
0N
#18
1L
1N
b00110011 \
b01000100 %
b010 l
b011 7
b00110011 8
b0011 C
b01000100 :
b010 b
b011 ;
b01000100 >
#20
0L
0N
#22
1L
1N
b01010101 %
b01000100 ]
b011 l
b100 7
b01000100 8
b0100 C
b01010101 :
b011 b
b100 ;
b01010101 >
#24
0L
0N
#26
1L
1N
b01100110 %
b100 l
b01010101 ^
b101 7
b01010101 8
b0101 C
b01100110 :
b100 b
b101 ;
b01100110 >
#28
0L
0N
#30
1L
1N
b01110111 %
b101 l
b110 7
b01100110 _
b0110 C
b01100110 8
b01110111 :
b101 b
b110 ;
b01110111 >
#32
0L
0N
#34
1L
1N
b0011000100111010010101110100000101001001010101000101111101010100010011110101111101010011010001010100111001000100 Q
b10001000 %
b110 l
b111 7
b01110111 8
b0111 C
b01110111 `
b10001000 :
b110 b
b111 ;
b10001000 >
#36
0L
0N
#38
1L
1N
b010101110100000101001001010101000101111101010100010011110101111101010011010001010100111001000100 P
b111 l
1I
b1000 C
1S
0"
b000 7
b10001000 8
09
b10001000 a
b00010001 *
b111 b
b000 ;
b00 -
1.
0H
#40
0L
0N
#42
1L
b00010001 8
1N
b000 b
b000 l
#44
0L
0N
#46
1L
1N
#48
0L
0N
#50
1L
1N
#52
0L
0N
#54
1L
1N
#56
0L
0N
#58
1L
1"
1N
b10011001 :
b10011001 %
1=
b10011001 >
#60
0L
0N
#62
1L
1N
b10011001 B
b10101010 %
b001 7
b0001 D
b10101010 :
b001 ;
b10011001 <
b10011001 d
b10101010 >
#64
0L
0N
#66
1L
1N
b10111011 %
b001 l
b010 7
b00100010 8
b0010 D
b10111011 :
b001 b
b010 ;
b10101010 <
b10111011 >
b10101010 e
#68
0L
0N
#70
1L
b10111011 f
1N
b11001100 %
b010 l
b011 7
b00110011 8
b0011 D
b11001100 :
b010 b
b011 ;
b10111011 <
b11001100 >
#72
0L
0N
#74
1L
b11001100 g
1N
b11011101 %
b011 l
b100 7
b01000100 8
b0100 D
b11011101 :
b011 b
b100 ;
b11001100 <
b11011101 >
#76
0L
0N
#78
1L
1N
b11011101 h
b11101110 %
b100 l
b101 7
b01010101 8
b0101 D
b11101110 :
b100 b
b101 ;
b11011101 <
b11101110 >
#80
0L
0N
#82
1L
1N
b11101110 i
b11111111 %
b101 l
b110 7
b01100110 8
b0110 D
b11111111 :
b101 b
b110 ;
b11101110 <
b11111111 >
#84
0L
0N
#86
1L
1N
b11111111 j
b00000000 %
b110 l
b111 7
b01110111 8
b0111 D
b00000000 :
b110 b
b111 ;
b11111111 <
b00000000 >
#88
0L
0N
#90
1L
1N
0#
b111 l
b000 7
b10001000 8
b1000 D
b111 b
b000 ;
b00000000 <
0=
#92
0L
0N
#94
1L
1N
10
b00110010001110100101001101000101010011100100010001011111010100000100000101000011010010110100010101010100 Q
b000 l
b00010001 8
1X
1Y
b000 b
b10011001 <
#96
0L
0N
#98
1L
b001 ?
1N
00
b0101001101000101010011100100010001011111010100000100000101000011010010110100010101010100 P
1&
0I
1(
0X
b0001 R
1J
#100
0L
0N
#102
1L
b010 ?
1N
b00100010 @
0(
b00100010 *
b001 c
b0010 R
b0001 G
#104
0L
0N
#106
1L
b011 ?
1N
b00110011 @
b0011 R
b00110011 *
b010 c
b0010 G
#108
0L
0N
#110
1L
b100 ?
1N
b01000100 @
b0100 R
b01000100 *
b011 c
b0011 G
#112
0L
0N
#114
1L
b101 ?
1N
b01010101 @
b0101 R
b01010101 *
b100 c
b0100 G
#116
0L
0N
#118
1L
b110 ?
1N
b01100110 @
b0110 R
b01100110 *
b101 c
b0101 G
#120
0L
0N
#122
1L
b111 ?
1N
b01110111 @
b0111 R
b01110111 *
b110 c
b0110 G
#124
0L
0N
#126
1L
b000 ?
1N
b10001000 @
b0011001100111010010101110100000101001001010101000101111101000110010011110101001001011111010000010100001101001011 Q
1)
b1000 R
b10001000 *
b111 c
b0111 G
#128
0L
0N
#130
1L
1N
b00010001 @
b010101110100000101001001010101000101111101000110010011110101001001011111010000010100001101001011 P
1K
0&
0Y
0)
b0000 R
b00010001 *
b000 c
0S
b1000 G
0J
#132
0L
0N
#134
1L
b0011000100111010010101110100000101001001010101000101111101010100010011110101111101010011010001010100111001000100 Q
1N
1/
#136
0L
0N
#138
1L
1I
1N
0/
b010101110100000101001001010101000101111101010100010011110101111101010011010001010100111001000100 P
1S
0K
#140
0L
0N
#142
1L
1N
b0000 G
#144
0L
0N
#146
1L
1X
1Y
1N
10
b00110010001110100101001101000101010011100100010001011111010100000100000101000011010010110100010101010100 Q
#148
0L
0N
#150
1L
b001 ?
1N
00
b0101001101000101010011100100010001011111010100000100000101000011010010110100010101010100 P
1&
0I
1(
0X
b0001 R
1J
#152
0L
0N
#154
1L
b010 ?
1N
b00100010 @
0(
b00100010 *
b001 c
b0010 R
b0001 G
#156
0L
0N
#158
1L
b011 ?
1N
b00110011 @
b0011 R
b00110011 *
b010 c
b0010 G
#160
0L
0N
#162
1L
b100 ?
1N
b01000100 @
b0100 R
b01000100 *
b011 c
b0011 G
#164
0L
0N
#166
1L
b101 ?
1N
b01010101 @
b0101 R
b01010101 *
b100 c
b0100 G
#168
0L
0N
#170
1L
b110 ?
1N
b01100110 @
b0110 R
b01100110 *
b101 c
b0101 G
#172
0L
0N
#174
1L
b111 ?
1N
b01110111 @
b0111 R
b01110111 *
b110 c
b0110 G
#176
0L
0N
#178
1L
b000 ?
1N
b10001000 @
b0011001100111010010101110100000101001001010101000101111101000110010011110101001001011111010000010100001101001011 Q
1)
b1000 R
b10001000 *
b111 c
b0111 G
#180
0L
0N
#182
1L
1N
b00010001 @
b010101110100000101001001010101000101111101000110010011110101001001011111010000010100001101001011 P
1K
0&
0Y
0)
b0000 R
b00010001 *
b000 c
0S
b1000 G
0J
#184
0L
0N
#186
1L
b0011000100111010010101110100000101001001010101000101111101010100010011110101111101010011010001010100111001000100 Q
1N
12
#188
0L
0N
#190
1L
1N
1#
b010101110100000101001001010101000101111101010100010011110101111101010011010001010100111001000100 P
0K
1I
b0000 C
19
02
b10011001 *
b01 -
1S
0.
#192
0L
0N
#194
1L
1N
b00000000 @
b00000000 Z
b001 7
b00000000 8
b0001 C
b001 ;
b0000 G
#196
0L
0N
#198
1L
1N
b00000000 [
b001 l
b010 7
b0010 C
b001 b
b010 ;
b10101010 <
#200
0L
0N
#202
1L
1N
10
b00000000 \
b00110010001110100101001101000101010011100100010001011111010100000100000101000011010010110100010101010100 Q
b010 l
b011 7
b0011 C
1X
1Y
b010 b
b011 ;
b10111011 <
#204
0L
0N
#206
1L
1N
00
b0101001101000101010011100100010001011111010100000100000101000011010010110100010101010100 P
b001 A
b00000000 ]
b011 l
0I
b100 7
1&
b0100 C
1(
0X
b11001100 <
b011 b
b100 ;
b0001 R
1J
#208
0L
0N
#210
1L
1N
b010 A
b10101010 B
b100 l
b00000000 ^
b101 7
b11011101 <
b0101 C
0(
b001 m
b10101010 *
b100 b
b101 ;
b0010 R
b0001 G
#212
0L
0N
#214
1L
1N
b011 A
b10111011 B
b101 l
b110 7
b00000000 _
b0110 C
b010 m
b11101110 <
b10111011 *
b101 b
b110 ;
b0011 R
b0010 G
#216
0L
0N
#218
1L
1N
b100 A
b11001100 B
b110 l
b111 7
b11111111 <
b0111 C
b00000000 `
b011 m
b11001100 *
b110 b
b111 ;
b0100 R
b0011 G
#220
0L
0N
#222
1L
1N
0#
b101 A
b11011101 B
b111 l
b000 7
b00000000 <
b1000 C
b100 m
09
b00000000 a
b11011101 *
b111 b
b000 ;
b0101 R
b0100 G
#224
0L
0N
#226
1L
1N
b110 A
b11101110 B
b000 l
b101 m
b0110 R
b000 b
b11101110 *
b10011001 <
b0101 G
#228
0L
0N
#230
1L
b110 m
1N
b0111 R
b11111111 *
b111 A
b11111111 B
b0110 G
#232
0L
0N
#234
1L
1N
b000 A
b00000000 B
b0011001100111010010101110100000101001001010101000101111101000110010011110101001001011111010000010100001101001011 Q
b111 m
1)
b00000000 *
b1000 R
b0111 G
#236
0L
0N
#238
1L
1N
b010101110100000101001001010101000101111101000110010011110101001001011111010000010100001101001011 P
b10011001 B
1K
0&
b000 m
0Y
0)
b10011001 *
b0000 R
0S
b1000 G
0J
#240
0L
0N
#242
1L
1N
0!
0"
0#
0$
b00000000 %
0&
0'
0(
0)
b00000000 *
0+
0,
b01 -
0.
0/
00
01
02
03
04
05
06
b000 7
b00000000 8
09
b00000000 :
b000 ;
b00000000 <
0=
b00000000 >
b000 ?
b00000000 @
b000 A
b00000000 B
b0000 C
b0000 D
0E
0F
b0000 G
0H
0I
0J
0K
0L
0M
0N
0O
b01010111010000010100100101010100010111110100011001001111010100100101111101000100010000010101010001000001 P
b001100000011101001010111010000010100100101010100010111110100011001001111010100100101111101000100010000010101010001000001 Q
b0000 R
0S
0T
0U
b00 V
0W
0X
0Y
b00000000 Z
b00000000 [
b00000000 \
b00000000 ]
b00000000 ^
b00000000 _
b00000000 `
b00000000 a
b000 b
b000 c
b00000000 d
b00000000 e
b00000000 f
b00000000 g
b00000000 h
b00000000 i
b00000000 j
b00000000 k
b000 l
b000 m
