doc/vcd/test_USBInTransferManagerTest_test_discard.vcd
$scope module USBInTransferManager $end
$var wire 1 ! active $end
$var wire 1 " transfer_stream_valid $end
$var wire 1 # transfer_stream_ready $end
$var wire 1 $ transfer_stream_last $end
$var wire 8 % transfer_stream_payload $end
$var wire 1 & packet_stream_valid $end
$var wire 1 ' packet_stream_ready $end
$var wire 1 ( packet_stream_first $end
$var wire 1 ) packet_stream_last $end
$var wire 8 * packet_stream_payload $end
$var wire 1 + flush $end
$var wire 1 , discard $end
$var wire 2 - data_pid $end
$var wire 1 . buffer_toggle $end
$var wire 1 / tokenizer_new_token $end
$var wire 1 0 tokenizer_ready_for_response $end
$var wire 1 1 tokenizer_is_in $end
$var wire 1 2 handshakes_in_ack $end
$var wire 1 3 handshakes_out_nak $end
$var wire 1 4 generate_zlps $end
$var wire 1 5 start_with_data1 $end
$var wire 1 6 reset_sequence $end
$var wire 3 7 memory0_adr0 $end
$var wire 8 8 memory0_dat_r0 $end
$var wire 1 9 memory0_we $end
$var wire 8 : memory0_dat_w $end
$var wire 3 ; memory1_adr0 $end
$var wire 8 < memory1_dat_r0 $end
$var wire 1 = memory1_we $end
$var wire 8 > memory1_dat_w $end
$var wire 3 ? memory0_adr1 $end
$var wire 8 @ memory0_dat_r1 $end
$var wire 3 A memory1_adr1 $end
$var wire 8 B memory1_dat_r1 $end
$var wire 4 C fill_count_0 $end
$var wire 4 D fill_count_1 $end
$var wire 1 E stream_ended_in_buffer0 $end
$var wire 1 F stream_ended_in_buffer1 $end
$var wire 4 G send_position $end
$var wire 1 H is_ongoing0 $end
$var wire 1 I is_ongoing1 $end
$var wire 1 J is_ongoing2 $end
$var wire 1 K is_ongoing3 $end
$var wire 1 L sys_clk $end
$var wire 1 M sys_rst $end
$var wire 1 N usb_clk $end
$var wire 1 O usb_rst $end
$var wire 104 P fsm0 $end
$var wire 120 Q fsm1 $end
$var wire 4 R send_position_next_value0 $end
$var wire 1 S send_position_next_value_ce0 $end
$var wire 1 T fsm_next_value $end
$var wire 1 U fsm_next_value_ce $end
$var wire 2 V data_pid_next_value1 $end
$var wire 1 W data_pid_next_value_ce1 $end
$var wire 1 X packet_stream_first_next_value2 $end
$var wire 1 Y packet_stream_first_next_value_ce2 $end
$var wire 8 Z transmit_buffer_0_data_0 $end
$var wire 8 [ transmit_buffer_0_data_1 $end
$var wire 8 \ transmit_buffer_0_data_2 $end
$var wire 8 ] transmit_buffer_0_data_3 $end
$var wire 8 ^ transmit_buffer_0_data_4 $end
$var wire 8 _ transmit_buffer_0_data_5 $end
$var wire 8 ` transmit_buffer_0_data_6 $end
$var wire 8 a transmit_buffer_0_data_7 $end
$var wire 3 b adr_reg0 $end
$var wire 3 c adr_reg1 $end
$var wire 8 d transmit_buffer_1_data_0 $end
$var wire 8 e transmit_buffer_1_data_1 $end
$var wire 8 f transmit_buffer_1_data_2 $end
$var wire 8 g transmit_buffer_1_data_3 $end
$var wire 8 h transmit_buffer_1_data_4 $end
$var wire 8 i transmit_buffer_1_data_5 $end
$var wire 8 j transmit_buffer_1_data_6 $end
$var wire 8 k transmit_buffer_1_data_7 $end
$var wire 3 l adr_reg2 $end
$var wire 3 m adr_reg3 $end
$enddefinitions $end
$dumpvars
$end
#0
0!
0"
0#
0$
b00000000 %
0&
0'
0(
0)
b00000000 *
0+
0,
b01 -
0.
0/
00
01
02
03
04
05
06
b000 7
b00000000 8
09
b00000000 :
b000 ;
b00000000 <
0=
b00000000 >
b000 ?
b00000000 @
b000 A
b00000000 B
b0000 C
b0000 D
0E
0F
b0000 G
0H
0I
0J
0K
0L
0M
0N
0O
b01010111010000010100100101010100010111110100011001001111010100100101111101000100010000010101010001000001 P
b001100000011101001010111010000010100100101010100010111110100011001001111010100100101111101000100010000010101010001000001 Q
b0000 R
0S
0T
0U
b00 V
0W
0X
0Y
b00000000 Z
b00000000 [
b00000000 \
b00000000 ]
b00000000 ^
b00000000 _
b00000000 `
b00000000 a
b000 b
b000 c
b00000000 d
b00000000 e
b00000000 f
b00000000 g
b00000000 h
b00000000 i
b00000000 j
b00000000 k
b000 l
b000 m
1#
1H
#0.0
#0.0
11
b00010001 >
1L
1!
1"
1N
b00010001 %
1'
19
b00010001 :
#0.0
0L
0N
#0.0
b001 ;
b00100010 >
1L
1N
b00010001 @
b00010001 Z
b00100010 %
b001 7
b00010001 8
b0001 C
b00100010 :
#0.0
0L
0N
#0.0
b001 b
b010 ;
b00110011 >
1L
1N
b00100010 [
b00110011 %
b001 l
b010 7
b00100010 8
b0010 C
b00110011 :
#0.0
0L
0N
#0.0
b010 b
b011 ;
b01000100 >
1L
1N
b00110011 \
b01000100 %
b010 l
b011 7
b00110011 8
b0011 C
b01000100 :
#0.0
0L
0N
#0.0
b011 b
b100 ;
b01010101 >
1L
1N
b01010101 %
b01000100 ]
b011 l
b100 7
b01000100 8
b0100 C
b01010101 :
#0.0
0L
0N
#0.0
b100 b
b101 ;
b01100110 >
1L
b101 7
1N
b01100110 %
b100 l
b01010101 ^
b01010101 8
b0101 C
b01100110 :
#0.0
0L
0N
#0.0
b101 b
b110 ;
b01110111 >
1L
1N
b01100110 8
b01110111 %
b101 l
b110 7
b01100110 _
b0110 C
b01110111 :
#0.0
0L
0N
#0.0
b110 b
b111 ;
b10001000 >
1L
1N
b0011000100111010010101110100000101001001010101000101111101010100010011110101111101010011010001010100111001000100 Q
b10001000 %
b110 l
b111 7
b01110111 8
b0111 C
b01110111 `
b10001000 :
#0.0
0L
0N
#0.0
1S
b10011001 %
b000 7
b10001000 8
09
b10001000 a
b10011001 :
b111 b
b00010001 *
b000 ;
b00 -
1=
1.
b10011001 >
0H
1L
1I
1N
b010101110100000101001001010101000101111101010100010011110101111101010011010001010100111001000100 P
b111 l
b1000 C
#0.0
0L
0N
#0.0
b000 b
b001 ;
b10011001 <
b10011001 d
b10101010 >
1L
1N
b10011001 B
b10101010 %
b000 l
b001 7
b00010001 8
b0001 D
b10101010 :
#0.0
0L
0N
#0.0
b001 b
b010 ;
b10101010 <
b10111011 >
b10101010 e
1L
1N
b10111011 %
b001 l
b010 7
b00100010 8
b0010 D
b10111011 :
#0.0
0L
0N
#0.0
b010 b
b011 ;
b10111011 <
b11001100 >
1L
b10111011 f
1N
b11001100 %
b010 l
b011 7
b00110011 8
b0011 D
b11001100 :
#0.0
0L
0N
#0.0
b011 b
b100 ;
b11001100 <
b11011101 >
1L
b11001100 g
1N
b11011101 %
b011 l
b100 7
b01000100 8
b0100 D
b11011101 :
#0.0
0L
0N
#0.0
b100 b
b101 ;
b11011101 <
b11101110 >
1L
1N
b11011101 h
b11101110 %
b100 l
b101 7
b01010101 8
b0101 D
b11101110 :
#0.0
0L
0N
#0.0
b101 b
b110 ;
b11101110 <
b11111111 >
1L
1N
b11101110 i
b11111111 %
b101 l
b110 7
b01100110 8
b0110 D
b11111111 :
#0.0
0L
0N
#0.0
b110 b
b111 ;
b11111111 <
b00000000 >
1L
1N
b11111111 j
b00000000 %
b110 l
b111 7
b01110111 8
b0111 D
b00000000 :
#0.0
0L
0N
#0.0
b111 b
b000 ;
b00000000 <
0=
1L
1Y
0"
1N
0#
10
b00110010001110100101001101000101010011100100010001011111010100000100000101000011010010110100010101010100 Q
b111 l
b000 7
b10001000 8
1X
b1000 D
#0.0
0L
0N
#0.0
b000 b
0X
b10011001 <
b0001 R
1&
1J
1L
0I
b001 ?
1N
00
b0101001101000101010011100100010001011111010100000100000101000011010010110100010101010100 P
b000 l
b00010001 8
1(
#0.0
0L
0N
#0.0
b001 c
b0010 R
b0001 G
1L
b010 ?
b00100010 @
1N
0(
b00100010 *
#0.0
0L
0N
#0.0
b010 c
b0011 R
b0010 G
1L
b00110011 @
b011 ?
1N
b00110011 *
#0.0
0L
0N
#0.0
b011 c
b0100 R
b0011 G
1L
b01000100 @
b100 ?
1N
b01000100 *
#0.0
0L
0N
#0.0
b100 c
b0101 R
b0100 G
1L
b01010101 @
b101 ?
1N
b01010101 *
#0.0
0L
0N
#0.0
b101 c
b0110 R
b0101 G
1L
b01100110 @
b110 ?
1N
b01100110 *
#0.0
0L
0N
#0.0
b110 c
b0111 R
b0110 G
1L
b01110111 @
b111 ?
1N
b01110111 *
#0.0
0L
0N
#0.0
b111 c
b1000 R
b0111 G
1L
b000 ?
1N
b10001000 @
b0011001100111010010101110100000101001001010101000101111101000110010011110101001001011111010000010100001101001011 Q
1)
b10001000 *
#0.0
0L
0N
#0.0
b000 c
b0000 R
0S
b1000 G
0J
1L
1K
1N
b00010001 @
0Y
b010101110100000101001001010101000101111101000110010011110101001001011111010000010100001101001011 P
0&
0)
b00010001 *
#0.0
0L
0N
#0.0
1L
b0011000100111010010101110100000101001001010101000101111101010100010011110101111101010011010001010100111001000100 Q
1N
12
#0.0
0L
0N
#0.0
b01 -
1S
0.
1L
1I
1N
02
1#
b10011001 *
b010101110100000101001001010101000101111101010100010011110101111101010011010001010100111001000100 P
0K
b0000 C
#0.0
0L
0N
#0.0
1L
1N
b0000 G
#0.0
0L
0N
#0.0
1L
1N
#0.0
0L
0N
#0.0
1L
1N
#0.0
0L
0N
#0.0
1L
1N
#0.0
0L
0N
#0.0
1L
1N
#0.0
0L
0N
#0.0
1,
b001100000011101001010111010000010100100101010100010111110100011001001111010100100101111101000100010000010101010001000001 Q
1L
1U
1N
#0.0
0L
0N
#0.0
0,
b00 -
0S
1H
1L
13
0U
1N
10
b01010111010000010100100101010100010111110100011001001111010100100101111101000100010000010101010001000001 P
0I
b0000 D
#0.0
0L
0N
#0.0
00
1L
1N
03
#0.0
0L
0N
#0.0
1L
1N
#0.0
0L
0N
#0.0
1L
1N
#0.0
0L
0N
#0.0
1L
1N
#0.0
0L
0N
#0.0
1L
1N
#0.0
0L
0N
#0.0
b00010001 %
b00010001 >
1L
b00010001 :
19
1"
1N
#0.0
0L
0N
#0.0
b001 ;
b00100010 >
1L
1N
b00100010 %
b001 7
b0001 C
b00100010 :
#0.0
0L
0N
#0.0
b001 b
b010 ;
b10101010 <
b00110011 >
1L
1N
b00110011 %
b001 l
b010 7
b00100010 8
b0010 C
b00110011 :
#0.0
0L
0N
#0.0
b010 b
b011 ;
b10111011 <
b01000100 >
1L
1N
b01000100 %
b010 l
b011 7
b00110011 8
b0011 C
b01000100 :
#0.0
0L
0N
#0.0
b011 b
b100 ;
b11001100 <
b01010101 >
1L
1N
b01010101 %
b011 l
b100 7
b01000100 8
b0100 C
b01010101 :
#0.0
0L
0N
#0.0
b100 b
b101 ;
b11011101 <
b01100110 >
1L
1N
b01100110 %
b100 l
b101 7
b01010101 8
b0101 C
b01100110 :
#0.0
0L
0N
#0.0
b101 b
b110 ;
b11101110 <
b01110111 >
1L
1N
b01110111 %
b101 l
b110 7
b01100110 8
b0110 C
b01110111 :
#0.0
0L
0N
#0.0
b110 b
b111 ;
b11111111 <
b10001000 >
1L
1N
b0011000100111010010101110100000101001001010101000101111101010100010011110101111101010011010001010100111001000100 Q
b10001000 %
b110 l
b111 7
b01110111 8
b0111 C
b10001000 :
#0.0
0L
0N
#0.0
1S
0"
b000 7
b10001000 8
1X
09
1Y
b00010001 *
b111 b
b000 ;
b00000000 <
b01 -
1.
0H
1L
1I
1N
10
b010101110100000101001001010101000101111101010100010011110101111101010011010001010100111001000100 P
b00110010001110100101001101000101010011100100010001011111010100000100000101000011010010110100010101010100 Q
b111 l
b1000 C
#0.0
0L
0N
#0.0
b000 b
0X
b10011001 <
b0001 R
1&
1J
1L
0I
b001 ?
1N
00
b0101001101000101010011100100010001011111010100000100000101000011010010110100010101010100 P
b000 l
b00010001 8
1(
#0.0
0L
0N
#0.0
b001 c
b0010 R
b0001 G
1L
b010 ?
b00100010 @
1N
0(
b00100010 *
#0.0
0L
0N
#0.0
b010 c
b0011 R
b0010 G
1L
b00110011 @
b011 ?
1N
b00110011 *
#0.0
0L
0N
#0.0
b011 c
b0100 R
b0011 G
1L
b01000100 @
b100 ?
1N
b01000100 *
#0.0
0L
0N
#0.0
b100 c
b0101 R
b0100 G
1L
b01010101 @
b101 ?
1N
b01010101 *
#0.0
0L
0N
#0.0
b101 c
b0110 R
b0101 G
1L
b01100110 @
b110 ?
1N
b01100110 *
#0.0
0L
0N
#0.0
b110 c
b0111 R
b0110 G
1L
b01110111 @
b111 ?
1N
b01110111 *
#0.0
0L
0N
#0.0
b111 c
b1000 R
b0111 G
1L
b000 ?
1N
b10001000 @
b0011001100111010010101110100000101001001010101000101111101000110010011110101001001011111010000010100001101001011 Q
1)
b10001000 *
#0.0
0L
0N
#0.0
b000 c
b0000 R
0S
b1000 G
0J
1L
1K
1N
b00010001 @
0Y
b010101110100000101001001010101000101111101000110010011110101001001011111010000010100001101001011 P
0&
0)
b00010001 *
#0.0
0L
0N
#0.0
1L
1N
0!
0"
0#
0$
b00000000 %
0&
0'
0(
0)
b00000000 *
0+
0,
b01 -
0.
0/
00
01
02
03
04
05
06
b000 7
b00000000 8
09
b00000000 :
b000 ;
b00000000 <
0=
b00000000 >
b000 ?
b00000000 @
b000 A
b00000000 B
b0000 C
b0000 D
0E
0F
b0000 G
0H
0I
0J
0K
0L
0M
0N
0O
b01010111010000010100100101010100010111110100011001001111010100100101111101000100010000010101010001000001 P
b001100000011101001010111010000010100100101010100010111110100011001001111010100100101111101000100010000010101010001000001 Q
b0000 R
0S
0T
0U
b00 V
0W
0X
0Y
b00000000 Z
b00000000 [
b00000000 \
b00000000 ]
b00000000 ^
b00000000 _
b00000000 `
b00000000 a
b000 b
b000 c
b00000000 d
b00000000 e
b00000000 f
b00000000 g
b00000000 h
b00000000 i
b00000000 j
b00000000 k
b000 l
b000 m
