doc/vcd/test_ULPITransmitTranslatorTest_test_simple_transmit.vcd
$scope module ULPITransmitTranslator $end
$var wire 8 ! ulpitransmittranslator0 $end
$var wire 1 " ulpitransmittranslator1 $end
$var wire 1 # ulpitransmittranslator2 $end
$var wire 2 $ ulpitransmittranslator3 $end
$var wire 1 % ulpitransmittranslator4 $end
$var wire 1 & ulpitransmittranslator5 $end
$var wire 8 ' ulpitransmittranslator6 $end
$var wire 1 ( ulpitransmittranslator7 $end
$var wire 1 ) ulpitransmittranslator8 $end
$var wire 1 * ulpitransmittranslator9 $end
$var wire 1 + sys_clk $end
$var wire 1 , sys_rst $end
$var wire 1 - usb_clk $end
$var wire 1 . usb_rst $end
$var wire 1 / is_ongoing0 $end
$var wire 1 0 is_ongoing1 $end
$var wire 1 1 is_ongoing2 $end
$var wire 64 2 fsm0 $end
$var wire 80 3 fsm1 $end
$enddefinitions $end
$dumpvars
$end
#0
b00000000 !
0"
0#
b00 $
0%
0&
b00000000 '
0(
0)
0*
0+
0,
0-
0.
0/
00
01
b01001001010001000100110001000101 2
b001100000011101001001001010001000100110001000101 3
1/
10
#0.0
#0.0
1+
1%
1-
#0.0
0+
0-
#0.0
1+
1-
#0.0
0+
0-
#0.0
1+
1-
#0.0
0+
0-
#0.0
1+
1-
#0.0
0+
0-
#0.0
1+
1-
#0.0
0+
0-
#0.0
1+
1-
#0.0
0+
0-
#0.0
1+
1-
#0.0
0+
0-
#0.0
1+
1-
#0.0
0+
0-
#0.0
1+
1-
#0.0
0+
0-
#0.0
1+
1-
#0.0
0+
0-
#0.0
b01000101 '
b10100101 !
1"
1+
1-
#0.0
0+
0-
#0.0
1+
1-
1&
#0.0
0+
0-
#0.0
b00110001001110100101010001010010010000010100111001010011010011010100100101010100 3
1(
1#
1+
1-
#0.0
0+
0-
#0.0
b00010001 '
1*
1+
1-
b0101010001010010010000010100111001010011010011010100100101010100 2
0/
b00010001 !
00
11
#0.0
0+
0-
#0.0
1+
1-
#0.0
0+
0-
#0.0
b00000000 '
b001100000011101001001001010001000100110001000101 3
1)
0"
1+
1-
#0.0
0+
0-
#0.0
0)
0*
1+
1-
b01001001010001000100110001000101 2
1/
10
0#
01
0&
#0.0
0+
0-
#0.0
1+
1-
b00000000 !
0"
0#
b00 $
0%
0&
b00000000 '
0(
0)
0*
0+
0,
0-
0.
0/
00
01
b01001001010001000100110001000101 2
b001100000011101001001001010001000100110001000101 3
