doc/vcd/test_ULPIRxEventDecoderTest_test_decode.vcd
$scope module ULPIRxEventDecoder $end
$var wire 1 ! dir $end
$var wire 1 " nxt $end
$var wire 8 # data_i $end
$var wire 1 $ ulpirxeventdecoder0 $end
$var wire 8 % ulpirxeventdecoder1 $end
$var wire 2 & ulpirxeventdecoder2 $end
$var wire 1 ' ulpirxeventdecoder3 $end
$var wire 1 ( ulpirxeventdecoder4 $end
$var wire 1 ) ulpirxeventdecoder5 $end
$var wire 1 * ulpirxeventdecoder6 $end
$var wire 1 + ulpirxeventdecoder7 $end
$var wire 1 , ulpirxeventdecoder8 $end
$var wire 1 - ulpirxeventdecoder9 $end
$var wire 1 . ulpirxeventdecoder10 $end
$var wire 1 / ulpirxeventdecoder11 $end
$var wire 1 0 sys_clk $end
$var wire 1 1 sys_rst $end
$var wire 1 2 usb_clk $end
$var wire 1 3 usb_rst $end
$var wire 1 4 direction_delayed $end
$var wire 1 5 receiving $end
$enddefinitions $end
$timescale 17ns $end
$dumpvars
$end
#1
0!
0"
b00000000 #
0$
b00000000 %
b00 &
0'
0(
0)
0*
0+
0,
0-
0.
0/
00
01
02
03
04
05
1-
#2
#3
12
1"
b10101011 #
10
1!
#4
02
00
#5
12
14
15
10
#6
02
00
#7
12
10
#8
02
00
#9
12
10
#10
02
00
#11
12
10
#12
02
00
#13
12
0"
05
10
0!
#14
02
00
#15
12
b00010010 #
04
10
1!
#16
02
00
#17
12
b00011110 #
14
15
10
#18
02
00
#19
12
b00011110 %
b10 &
1'
1+
0-
1.
10
#20
02
00
#21
12
0.
10
0!
0"
b00000000 #
0$
b00000000 %
b00 &
0'
0(
0)
0*
0+
0,
0-
0.
0/
00
01
02
03
04
05
