doc/vcd/test_GetDescriptorHandlerBlockTest_test_all_descriptors_with_offset.vcd
$scope module GetDescriptorHandlerBlock $end
$var wire 16 ! getdescriptorhandlerblock0 $end
$var wire 16 " getdescriptorhandlerblock1 $end
$var wire 1 # getdescriptorhandlerblock2 $end
$var wire 11 $ getdescriptorhandlerblock3 $end
$var wire 1 % getdescriptorhandlerblock_valid $end
$var wire 1 & getdescriptorhandlerblock_ready $end
$var wire 1 ' getdescriptorhandlerblock_first $end
$var wire 1 ( getdescriptorhandlerblock_last $end
$var wire 8 ) getdescriptorhandlerblock_payload $end
$var wire 1 * getdescriptorhandlerblock4 $end
$var wire 1 + sys_clk $end
$var wire 1 , sys_rst $end
$var wire 1 - usb_clk $end
$var wire 1 . usb_rst $end
$var wire 8 / type_number $end
$var wire 8 0 index $end
$var wire 7 1 adr $end
$var wire 32 2 dat_r $end
$var wire 16 3 length $end
$var wire 16 4 words_remaining $end
$var wire 7 5 position_in_stream $end
$var wire 16 6 bytes_sent $end
$var wire 16 7 descriptor_length $end
$var wire 7 8 descriptor_data_base_address $end
$var wire 1 9 on_first_packet $end
$var wire 1 : on_last_packet $end
$var wire 8 ; descr_idx $end
$var wire 9 < word_in_stream $end
$var wire 2 = byte_in_stream $end
$var wire 136 > fsm0 $end
$var wire 152 ? fsm1 $end
$var wire 16 @ bytes_sent_next_value0 $end
$var wire 1 A bytes_sent_next_value_ce0 $end
$var wire 7 B position_in_stream_next_value1 $end
$var wire 1 C position_in_stream_next_value_ce1 $end
$var wire 7 D descriptor_data_base_address_next_value2 $end
$var wire 1 E descriptor_data_base_address_next_value_ce2 $end
$var wire 16 F descriptor_length_next_value3 $end
$var wire 1 G descriptor_length_next_value_ce3 $end
$var wire 32 H mem_data_0 $end
$var wire 32 I mem_data_1 $end
$var wire 32 J mem_data_2 $end
$var wire 32 K mem_data_3 $end
$var wire 32 L mem_data_4 $end
$var wire 32 M mem_data_5 $end
$var wire 32 N mem_data_6 $end
$var wire 32 O mem_data_7 $end
$var wire 32 P mem_data_8 $end
$var wire 32 Q mem_data_9 $end
$var wire 32 R mem_data_10 $end
$var wire 32 S mem_data_11 $end
$var wire 32 T mem_data_12 $end
$var wire 32 U mem_data_13 $end
$var wire 32 V mem_data_14 $end
$var wire 32 W mem_data_15 $end
$var wire 32 X mem_data_16 $end
$var wire 32 Y mem_data_17 $end
$var wire 32 Z mem_data_18 $end
$var wire 32 [ mem_data_19 $end
$var wire 32 \ mem_data_20 $end
$var wire 32 ] mem_data_21 $end
$var wire 32 ^ mem_data_22 $end
$var wire 32 _ mem_data_23 $end
$var wire 32 ` mem_data_24 $end
$var wire 32 a mem_data_25 $end
$var wire 32 b mem_data_26 $end
$var wire 32 c mem_data_27 $end
$var wire 32 d mem_data_28 $end
$var wire 32 e mem_data_29 $end
$var wire 32 f mem_data_30 $end
$var wire 32 g mem_data_31 $end
$var wire 32 h mem_data_32 $end
$var wire 32 i mem_data_33 $end
$var wire 32 j mem_data_34 $end
$var wire 32 k mem_data_35 $end
$var wire 32 l mem_data_36 $end
$var wire 32 m mem_data_37 $end
$var wire 32 n mem_data_38 $end
$var wire 32 o mem_data_39 $end
$var wire 32 p mem_data_40 $end
$var wire 32 q mem_data_41 $end
$var wire 32 r mem_data_42 $end
$var wire 32 s mem_data_43 $end
$var wire 32 t mem_data_44 $end
$var wire 32 u mem_data_45 $end
$var wire 32 v mem_data_46 $end
$var wire 32 w mem_data_47 $end
$var wire 32 x mem_data_48 $end
$var wire 32 y mem_data_49 $end
$var wire 32 z mem_data_50 $end
$var wire 32 { mem_data_51 $end
$var wire 32 | mem_data_52 $end
$var wire 32 } mem_data_53 $end
$var wire 32 ~ mem_data_54 $end
$var wire 32 "! mem_data_55 $end
$var wire 32 "" mem_data_56 $end
$var wire 32 "# mem_data_57 $end
$var wire 32 "$ mem_data_58 $end
$var wire 32 "% mem_data_59 $end
$var wire 32 "& mem_data_60 $end
$var wire 32 "' mem_data_61 $end
$var wire 32 "( mem_data_62 $end
$var wire 32 ") mem_data_63 $end
$var wire 32 "* mem_data_64 $end
$var wire 32 "+ mem_data_65 $end
$var wire 32 ", mem_data_66 $end
$var wire 32 "- mem_data_67 $end
$var wire 32 ". mem_data_68 $end
$var wire 32 "/ mem_data_69 $end
$var wire 32 "0 mem_data_70 $end
$var wire 32 "1 mem_data_71 $end
$var wire 32 "2 mem_data_72 $end
$var wire 32 "3 mem_data_73 $end
$var wire 32 "4 mem_data_74 $end
$var wire 32 "5 mem_data_75 $end
$var wire 32 "6 mem_data_76 $end
$var wire 32 "7 mem_data_77 $end
$var wire 32 "8 mem_data_78 $end
$var wire 32 "9 mem_data_79 $end
$var wire 32 ": mem_data_80 $end
$var wire 32 "; mem_data_81 $end
$var wire 32 "< mem_data_82 $end
$var wire 32 "= mem_data_83 $end
$var wire 32 "> mem_data_84 $end
$var wire 32 "? mem_data_85 $end
$var wire 32 "@ mem_data_86 $end
$var wire 32 "A mem_data_87 $end
$var wire 32 "B mem_data_88 $end
$var wire 32 "C mem_data_89 $end
$var wire 32 "D mem_data_90 $end
$var wire 32 "E mem_data_91 $end
$var wire 32 "F mem_data_92 $end
$var wire 32 "G mem_data_93 $end
$var wire 32 "H mem_data_94 $end
$var wire 32 "I mem_data_95 $end
$var wire 32 "J mem_data_96 $end
$var wire 32 "K mem_data_97 $end
$var wire 32 "L mem_data_98 $end
$var wire 32 "M mem_data_99 $end
$var wire 32 "N mem_data_100 $end
$var wire 32 "O mem_data_101 $end
$var wire 32 "P mem_data_102 $end
$var wire 32 "Q mem_data_103 $end
$var wire 32 "R mem_data_104 $end
$var wire 7 "S adr_reg $end
$enddefinitions $end
$timescale 1ns $end
$dumpvars
$end
#2
b0000000000000000 !
b0000000000000000 "
0#
b00000000000 $
0%
0&
0'
0(
b00000000 )
0*
0+
0,
0-
0.
b00000000 /
b00000000 0
b0000000 1
b00000000000000000000000000000000 2
b0000000000000000 3
b0000000000000000 4
b0000000 5
b0000000000000000 6
b0000000000000000 7
b0000000 8
09
0:
b00000000 ;
b000000000 <
b00 =
b01001001010001000100110001000101 >
b001100000011101001001001010001000100110001000101 ?
b0000000000000000 @
0A
b0000000 B
0C
b0000000 D
0E
b0000000000000000 F
0G
b00000000000000000000000000000000 H
b00000000000000010000000010001000 I
b00000000000000010000000010001100 J
b00000000000001010000000010010000 K
b00000000000000000000000000000000 L
b00000000000000000000000000000000 M
b00000000000000000000000000000000 N
b00000000000000000000000000000000 O
b00000000000000000000000000000000 P
b00000000000000000000000000000000 Q
b00000000000000000000000000000000 R
b00000000000000000000000000000000 S
b00000000000000000000000000000000 T
b00000000000000000000000000000000 U
b00000000000000000000000000000000 V
b00000000000000000000000000000000 W
b00000000000000000000000000000000 X
b00000000000000000000000000000000 Y
b00000000000000000000000000000000 Z
b00000000000000000000000000000000 [
b00000000000000000000000000000000 \
b00000000000000000000000000000000 ]
b00000000000000000000000000000000 ^
b00000000000000000000000000000000 _
b00000000000000000000000000000000 `
b00000000000000000000000000000000 a
b00000000000000000000000000000000 b
b00000000000000000000000000000000 c
b00000000000000000000000000000000 d
b00000000000000000000000000000000 e
b00000000000000000000000000000000 f
b00000000000000000000000000000000 g
b00000000000000000000000000000000 h
b00000000000000010000000010100100 i
b00000000000100100000000010101000 j
b00000000000110010000000010111100 k
b00000000000001000000000011011000 l
b00000000000110100000000011011100 m
b00000000000100000000000011111000 n
b00000000011100000000000100001000 o
b00000000000111100000000101111000 p
b00000000000010010000000110011000 q
b00010010000000010000000000000010 r
b00000000000000000000000001000000 s
b00110100000100100110011101000101 t
b00000000000000000000000100000010 u
b00000011000000010000000000000000 v
b00001001000000100001100100000000 w
b00000001000000010000000011000000 x
b00110010000010010000010000000000 y
b00000000000000010000001000000010 z
b00000001000000000000011100000101 {
b10000001000000110100000000000000 |
b00001011000000000000000000000000 }
b00000100000000110000100100000100 ~
b00011010000000110100110100000000 "!
b01100001000000000110111000000000 ""
b01110101000000000110011000000000 "#
b01100001000000000110001100000000 "$
b01110100000000000111010100000000 "%
b01110010000000000110010100000000 "&
b01110010000000000000000000000000 "'
b00010000000000110101000000000000 "(
b01110010000000000110111100000000 ")
b01100100000000000111010100000000 "*
b01100011000000000111010000000000 "+
b01110000000000110101010000000000 ",
b01101000000000000110100100000000 "-
b01110011000000000101001100000000 ".
b01100101000000000111001000000000 "/
b01101001000000000110000100000000 "0
b01101100000000000100111000000000 "1
b01110101000000000110110100000000 "2
b01100010000000000110010100000000 "3
b01110010000000000100100100000000 "4
b01110011000000000101001000000000 "5
b01100101000000000111001100000000 "6
b01110101000000000110110000000000 "7
b01110100000000000111001100000000 "8
b01001001000000000110111000000000 "9
b01000001000000000100010000000000 ":
b01100101000000000111001100000000 ";
b01100011000000000111001000000000 "<
b01101001000000000111000000000000 "=
b01110100000000000110111100000000 ">
b01110010000000000100110000000000 "?
b01101111000000000110111000000000 "@
b01100111000000000110010100000000 "A
b01110010000000000101010000000000 "B
b01101000000000000110000100000000 "C
b01101110000000000011011000000000 "D
b00110100000000000100001000000000 "E
b01111001000000000111010000000000 "F
b01100101000000000111001100000000 "G
b00011110000000110110111000000000 "H
b01101111000000000110111000000000 "I
b01100011000000000110111100000000 "J
b01101110000000000111001100000000 "K
b01100101000000000110001100000000 "L
b01110101000000000111010000000000 "M
b01101001000000000111011000000000 "N
b01100101000000000000000000000000 "O
b00001001001000010000000100000001 "P
b00000000000000010010001000000000 "Q
b00110010000000000000000000000000 "R
b0000000 "S
19
1:
1A
#4
#6
b11111111 ;
1+
1-
#8
0+
0-
#10
b00000010 /
b0000001000000000 !
b0000000000011001 "
b0000010 1
1#
b00000000001 $
b00110001001110100101001101010100010000010101001001010100 ?
1&
b0000000000011000 4
1+
1-
09
#12
0+
0-
#14
0:
b0000010 "S
0#
b00000000000000010000000010001100 2
b0101001101010100010000010101001001010100 >
b00000000 ;
b00110010001110100100110001001111010011110100101101010101010100000101111101010100010110010101000001000101 ?
b0000000000011000 3
0A
b0000001 B
1C
1+
1-
#16
0+
0-
#18
0C
b0100011 1
b0100110001001111010011110100101101010101010100000101111101010100010110010101000001000101 >
b00110011001110100100110001001111010011110100101101010101010100000101111101000100010001010101001101000011010100100100100101010000010101000100111101010010 ?
b01 =
b0000000 B
b0000001 5
1+
1-
19
#20
0+
0-
#22
b0100011 "S
b0101111 D
b0101111 1
1E
b0100110001001111010011110100101101010101010100000101111101000100010001010101001101000011010100100100100101010000010101000100111101010010 >
b00000000000110010000000010111100 2
b0011010000111010010100110100010101001110010001000101111101000100010001010101001101000011010100100100100101010000010101000100111101010010 ?
b0000000000011001 F
1G
1+
1-
#24
0+
0-
#26
b0101111 "S
b0000000 D
0E
b00001001000000100001100100000000 2
b0000000000000000 F
0G
b0000000000011001 7
b0101111 8
b010100110100010101001110010001000101111101000100010001010101001101000011010100100100100101010000010101000100111101010010 >
1%
b0000000000000001 @
1A
1'
b00000010 )
b0000010 B
1C
1+
1-
#28
0+
0-
#30
b10 =
b0000000000000010 @
0'
b00011001 )
b0000011 B
b0000010 5
1+
b0000000000000001 6
1-
09
#32
0+
0-
#34
b0110000 1
b11 =
b0000000000000011 @
b00000000 )
b0000100 B
b0000011 5
1+
b0000000000000010 6
1-
#36
0+
0-
#38
b0110000 "S
b00000001000000010000000011000000 2
b000000001 <
b00 =
b0000000000000100 @
b00000001 )
b0000101 B
b0000100 5
1+
b0000000000000011 6
1-
#40
0+
0-
#42
b0000110 B
b0000101 5
1+
b0000000000000100 6
1-
b01 =
b0000000000000101 @
#44
0+
0-
#46
b00000000 )
b0000111 B
b0000110 5
1+
b0000000000000101 6
1-
b10 =
b0000000000000110 @
#48
0+
0-
#50
b0110001 1
b11 =
b0000000000000111 @
b11000000 )
b0001000 B
b0000111 5
1+
b0000000000000110 6
1-
#52
0+
0-
#54
b0110001 "S
b00110010000010010000010000000000 2
b000000010 <
b00 =
b0000000000001000 @
b00110010 )
b0001001 B
b0001000 5
1+
b0000000000000111 6
1-
#56
0+
0-
#58
b00001001 )
b0001010 B
b0001001 5
1+
b0000000000001000 6
1-
b01 =
b0000000000001001 @
#60
0+
0-
#62
b00000100 )
b0001011 B
b0001010 5
1+
b0000000000001001 6
1-
b10 =
b0000000000001010 @
#64
0+
0-
#66
b0110010 1
b11 =
b0000000000001011 @
b00000000 )
b0001100 B
b0001011 5
1+
b0000000000001010 6
1-
#68
0+
0-
#70
b0110010 "S
b00000000000000010000001000000010 2
b000000011 <
b00 =
b0000000000001100 @
b0001101 B
b0001100 5
1+
b0000000000001011 6
1-
#72
0+
0-
#74
b00000001 )
b0001110 B
b0001101 5
1+
b0000000000001100 6
1-
b01 =
b0000000000001101 @
#76
0+
0-
#78
b00000010 )
b0001111 B
b0001110 5
1+
b0000000000001101 6
1-
b10 =
b0000000000001110 @
#80
0+
0-
#82
b0110011 1
b11 =
b0000000000001111 @
b0010000 B
b0001111 5
1+
b0000000000001110 6
1-
#84
0+
0-
#86
b0110011 "S
b00000001000000000000011100000101 2
b000000100 <
b00 =
b0000000000010000 @
b00000001 )
b0010001 B
b0010000 5
1+
b0000000000001111 6
1-
#88
0+
0-
#90
b00000000 )
b0010010 B
b0010001 5
1+
b0000000000010000 6
1-
b01 =
b0000000000010001 @
#92
0+
0-
#94
b00000111 )
b0010011 B
b0010010 5
1+
b0000000000010001 6
1-
b10 =
b0000000000010010 @
#96
0+
0-
#98
b0110100 1
b11 =
b0000000000010011 @
b00000101 )
b0010100 B
b0010011 5
1+
b0000000000010010 6
1-
#100
0+
0-
#102
b0110100 "S
b10000001000000110100000000000000 2
b000000101 <
b00 =
b0000000000010100 @
b10000001 )
b0010101 B
b0010100 5
1+
b0000000000010011 6
1-
#104
0+
0-
#106
b00000011 )
b0010110 B
b0010101 5
1+
b0000000000010100 6
1-
b01 =
b0000000000010101 @
#108
0+
0-
#110
b01000000 )
b0010111 B
b0010110 5
1+
b0000000000010101 6
1-
b10 =
b0000000000010110 @
#112
0+
0-
#114
b0110101 1
b11 =
b0000000000010111 @
b00000000 )
b0011000 B
b0010111 5
1+
b0000000000010110 6
1-
#116
0+
0-
#118
b0110101 "S
b00001011000000000000000000000000 2
1E
b000000110 <
b00 =
1G
b0011000 5
b0000000000010111 6
1:
b001100000011101001001001010001000100110001000101 ?
b0000000000000000 @
0A
1(
b00001011 )
b0000000 B
0C
1+
1-
#120
0+
0-
#122
b0000010 1
0E
b01001001010001000100110001000101 >
0%
0G
1A
0(
b00000000 )
1+
b0000000000000000 7
1-
b0000000 8
#124
0+
0-
#126
0:
b0000010 "S
1+
b0000000000000000 6
1-
0&
b00000000000000010000000010001100 2
#128
0+
0-
#130
b00000011 /
b00000001 0
b0000001100000001 !
b0000000000011010 "
b0000011 1
1#
b00110001001110100101001101010100010000010101001001010100 ?
1&
b0000000000011001 4
1+
1-
#132
0+
0-
#134
b0000011 "S
0#
b00000000000001010000000010010000 2
b0101001101010100010000010101001001010100 >
b00000001 ;
b00110010001110100100110001001111010011110100101101010101010100000101111101010100010110010101000001000101 ?
b0000000000011001 3
0A
b0000001 B
1C
1+
1-
#136
0+
0-
#138
0C
b0100101 1
b0100110001001111010011110100101101010101010100000101111101010100010110010101000001000101 >
b000000000 <
b00110011001110100100110001001111010011110100101101010101010100000101111101000100010001010101001101000011010100100100100101010000010101000100111101010010 ?
b01 =
b0000000 B
b0000001 5
1+
1-
19
#140
0+
0-
#142
b0100101 "S
b0110111 D
b0110111 1
1E
b0100110001001111010011110100101101010101010100000101111101000100010001010101001101000011010100100100100101010000010101000100111101010010 >
b00000000000110100000000011011100 2
b0011010000111010010100110100010101001110010001000101111101000100010001010101001101000011010100100100100101010000010101000100111101010010 ?
b0000000000011010 F
1G
1+
1-
#144
0+
0-
#146
b0110111 "S
b0000000 D
0E
b00011010000000110100110100000000 2
b0000000000000000 F
0G
b0000000000011010 7
b0110111 8
b010100110100010101001110010001000101111101000100010001010101001101000011010100100100100101010000010101000100111101010010 >
1%
b0000000000000001 @
1A
1'
b00000011 )
b0000010 B
1C
1+
1-
#148
0+
0-
#150
b10 =
b0000000000000010 @
0'
b01001101 )
b0000011 B
b0000010 5
1+
b0000000000000001 6
1-
09
#152
0+
0-
#154
b0111000 1
b11 =
b0000000000000011 @
b00000000 )
b0000100 B
b0000011 5
1+
b0000000000000010 6
1-
#156
0+
0-
#158
b0111000 "S
b01100001000000000110111000000000 2
b000000001 <
b00 =
b0000000000000100 @
b01100001 )
b0000101 B
b0000100 5
1+
b0000000000000011 6
1-
#160
0+
0-
#162
b00000000 )
b0000110 B
b0000101 5
1+
b0000000000000100 6
1-
b01 =
b0000000000000101 @
#164
0+
0-
#166
b01101110 )
b0000111 B
b0000110 5
1+
b0000000000000101 6
1-
b10 =
b0000000000000110 @
#168
0+
0-
#170
b0111001 1
b11 =
b0000000000000111 @
b00000000 )
b0001000 B
b0000111 5
1+
b0000000000000110 6
1-
#172
0+
0-
#174
b0111001 "S
b01110101000000000110011000000000 2
b000000010 <
b00 =
b0000000000001000 @
b01110101 )
b0001001 B
b0001000 5
1+
b0000000000000111 6
1-
#176
0+
0-
#178
b00000000 )
b0001010 B
b0001001 5
1+
b0000000000001000 6
1-
b01 =
b0000000000001001 @
#180
0+
0-
#182
b01100110 )
b0001011 B
b0001010 5
1+
b0000000000001001 6
1-
b10 =
b0000000000001010 @
#184
0+
0-
#186
b0111010 1
b11 =
b0000000000001011 @
b00000000 )
b0001100 B
b0001011 5
1+
b0000000000001010 6
1-
#188
0+
0-
#190
b0111010 "S
b01100001000000000110001100000000 2
b000000011 <
b00 =
b0000000000001100 @
b01100001 )
b0001101 B
b0001100 5
1+
b0000000000001011 6
1-
#192
0+
0-
#194
b00000000 )
b0001110 B
b0001101 5
1+
b0000000000001100 6
1-
b01 =
b0000000000001101 @
#196
0+
0-
#198
b01100011 )
b0001111 B
b0001110 5
1+
b0000000000001101 6
1-
b10 =
b0000000000001110 @
#200
0+
0-
#202
b0111011 1
b11 =
b0000000000001111 @
b00000000 )
b0010000 B
b0001111 5
1+
b0000000000001110 6
1-
#204
0+
0-
#206
b0111011 "S
b01110100000000000111010100000000 2
b000000100 <
b00 =
b0000000000010000 @
b01110100 )
b0010001 B
b0010000 5
1+
b0000000000001111 6
1-
#208
0+
0-
#210
b00000000 )
b0010010 B
b0010001 5
1+
b0000000000010000 6
1-
b01 =
b0000000000010001 @
#212
0+
0-
#214
b01110101 )
b0010011 B
b0010010 5
1+
b0000000000010001 6
1-
b10 =
b0000000000010010 @
#216
0+
0-
#218
b0111100 1
b11 =
b0000000000010011 @
b00000000 )
b0010100 B
b0010011 5
1+
b0000000000010010 6
1-
#220
0+
0-
#222
b0111100 "S
b01110010000000000110010100000000 2
b000000101 <
b00 =
b0000000000010100 @
b01110010 )
b0010101 B
b0010100 5
1+
b0000000000010011 6
1-
#224
0+
0-
#226
b00000000 )
b0010110 B
b0010101 5
1+
b0000000000010100 6
1-
b01 =
b0000000000010101 @
#228
0+
0-
#230
b01100101 )
b0010111 B
b0010110 5
1+
b0000000000010101 6
1-
b10 =
b0000000000010110 @
#232
0+
0-
#234
b0111101 1
b11 =
b0000000000010111 @
b00000000 )
b0011000 B
b0010111 5
1+
b0000000000010110 6
1-
#236
0+
0-
#238
b0111101 "S
b01110010000000000000000000000000 2
b000000110 <
b00 =
b0000000000011000 @
b01110010 )
b0011001 B
b0011000 5
1+
b0000000000010111 6
1-
#240
0+
0-
#242
1:
0C
1E
b001100000011101001001001010001000100110001000101 ?
b01 =
b0000000000000000 @
1G
0A
1(
b00000000 )
b0000000 B
b0011001 5
1+
b0000000000011000 6
1-
#244
0+
0-
#246
b0000011 1
0E
b01001001010001000100110001000101 >
0%
0G
1A
0(
1+
b0000000000000000 7
1-
b0000000 8
#248
0+
0-
#250
0:
b0000011 "S
1+
b0000000000000000 6
1-
0&
b00000000000001010000000010010000 2
#252
0+
0-
#254
b00000010 0
b0000001100000010 !
b0000000000010000 "
1#
b00110001001110100101001101010100010000010101001001010100 ?
1&
b0000000000001111 4
1+
1-
#256
0+
0-
#258
0#
b0101001101010100010000010101001001010100 >
b00000010 ;
b00110010001110100100110001001111010011110100101101010101010100000101111101010100010110010101000001000101 ?
b0000000000001111 3
0A
b0000001 B
1C
1+
1-
#260
0+
0-
#262
0C
b0100110 1
b0100110001001111010011110100101101010101010100000101111101010100010110010101000001000101 >
b000000000 <
b00110011001110100100110001001111010011110100101101010101010100000101111101000100010001010101001101000011010100100100100101010000010101000100111101010010 ?
b0000000 B
b0000001 5
1+
1-
19
#264
0+
0-
#266
b0100110 "S
b0111110 D
b0111110 1
1E
b0100110001001111010011110100101101010101010100000101111101000100010001010101001101000011010100100100100101010000010101000100111101010010 >
b00000000000100000000000011111000 2
b0011010000111010010100110100010101001110010001000101111101000100010001010101001101000011010100100100100101010000010101000100111101010010 ?
b0000000000010000 F
1G
1+
1-
#268
0+
0-
#270
b0111110 "S
b0000000 D
0E
b00010000000000110101000000000000 2
b0000000000000000 F
0G
b0000000000010000 7
b0111110 8
b010100110100010101001110010001000101111101000100010001010101001101000011010100100100100101010000010101000100111101010010 >
1%
b0000000000000001 @
1A
1'
b00000011 )
b0000010 B
1C
1+
1-
#272
0+
0-
#274
b10 =
b0000000000000010 @
0'
b01010000 )
b0000011 B
b0000010 5
1+
b0000000000000001 6
1-
09
#276
0+
0-
#278
b0111111 1
b11 =
b0000000000000011 @
b00000000 )
b0000100 B
b0000011 5
1+
b0000000000000010 6
1-
#280
0+
0-
#282
b0111111 "S
b01110010000000000110111100000000 2
b000000001 <
b00 =
b0000000000000100 @
b01110010 )
b0000101 B
b0000100 5
1+
b0000000000000011 6
1-
#284
0+
0-
#286
b00000000 )
b0000110 B
b0000101 5
1+
b0000000000000100 6
1-
b01 =
b0000000000000101 @
#288
0+
0-
#290
b01101111 )
b0000111 B
b0000110 5
1+
b0000000000000101 6
1-
b10 =
b0000000000000110 @
#292
0+
0-
#294
b1000000 1
b11 =
b0000000000000111 @
b00000000 )
b0001000 B
b0000111 5
1+
b0000000000000110 6
1-
#296
0+
0-
#298
b1000000 "S
b01100100000000000111010100000000 2
b000000010 <
b00 =
b0000000000001000 @
b01100100 )
b0001001 B
b0001000 5
1+
b0000000000000111 6
1-
#300
0+
0-
#302
b00000000 )
b0001010 B
b0001001 5
1+
b0000000000001000 6
1-
b01 =
b0000000000001001 @
#304
0+
0-
#306
b01110101 )
b0001011 B
b0001010 5
1+
b0000000000001001 6
1-
b10 =
b0000000000001010 @
#308
0+
0-
#310
b1000001 1
b11 =
b0000000000001011 @
b00000000 )
b0001100 B
b0001011 5
1+
b0000000000001010 6
1-
#312
0+
0-
#314
b1000001 "S
b01100011000000000111010000000000 2
b000000011 <
b00 =
b0000000000001100 @
b01100011 )
b0001101 B
b0001100 5
1+
b0000000000001011 6
1-
#316
0+
0-
#318
b00000000 )
b0001110 B
b0001101 5
1+
b0000000000001100 6
1-
b01 =
b0000000000001101 @
#320
0+
0-
#322
b01110100 )
b0001111 B
b0001110 5
1+
b0000000000001101 6
1-
b10 =
b0000000000001110 @
#324
0+
0-
#326
1E
b11 =
1G
b0001111 5
b0000000000001110 6
1:
b001100000011101001001001010001000100110001000101 ?
b0000000000000000 @
0A
1(
b00000000 )
b0000000 B
0C
1+
1-
#328
0+
0-
#330
b0000011 1
0E
b01001001010001000100110001000101 >
0%
0G
1A
0(
1+
b0000000000000000 7
1-
b0000000 8
#332
0+
0-
#334
0:
b0000011 "S
1+
b0000000000000000 6
1-
0&
b00000000000001010000000010010000 2
#336
0+
0-
#338
b00000011 0
b0000001100000011 !
b0000000001110000 "
1#
b00110001001110100101001101010100010000010101001001010100 ?
1&
b0000000001101111 4
1+
1-
#340
0+
0-
#342
0#
b0101001101010100010000010101001001010100 >
b00000011 ;
b00110010001110100100110001001111010011110100101101010101010100000101111101010100010110010101000001000101 ?
b0000000001000000 3
0A
b0000001 B
1C
1+
1-
#344
0+
0-
#346
0C
b0100111 1
b0100110001001111010011110100101101010101010100000101111101010100010110010101000001000101 >
b000000000 <
b00110011001110100100110001001111010011110100101101010101010100000101111101000100010001010101001101000011010100100100100101010000010101000100111101010010 ?
b01 =
b0000000 B
b0000001 5
1+
1-
19
#348
0+
0-
#350
b0100111 "S
b1000010 D
b1000010 1
1E
b0100110001001111010011110100101101010101010100000101111101000100010001010101001101000011010100100100100101010000010101000100111101010010 >
b00000000011100000000000100001000 2
b0011010000111010010100110100010101001110010001000101111101000100010001010101001101000011010100100100100101010000010101000100111101010010 ?
b0000000001110000 F
1G
1+
1-
#352
0+
0-
#354
b1000010 "S
b0000000 D
0E
b01110000000000110101010000000000 2
b0000000000000000 F
0G
b0000000001110000 7
b1000010 8
b010100110100010101001110010001000101111101000100010001010101001101000011010100100100100101010000010101000100111101010010 >
1%
b0000000000000001 @
1A
1'
b00000011 )
b0000010 B
1C
1+
1-
#356
0+
0-
#358
b10 =
b0000000000000010 @
0'
b01010100 )
b0000011 B
b0000010 5
1+
b0000000000000001 6
1-
09
#360
0+
0-
#362
b1000011 1
b11 =
b0000000000000011 @
b00000000 )
b0000100 B
b0000011 5
1+
b0000000000000010 6
1-
#364
0+
0-
#366
b1000011 "S
b01101000000000000110100100000000 2
b000000001 <
b00 =
b0000000000000100 @
b01101000 )
b0000101 B
b0000100 5
1+
b0000000000000011 6
1-
#368
0+
0-
#370
b00000000 )
b0000110 B
b0000101 5
1+
b0000000000000100 6
1-
b01 =
b0000000000000101 @
#372
0+
0-
#374
b01101001 )
b0000111 B
b0000110 5
1+
b0000000000000101 6
1-
b10 =
b0000000000000110 @
#376
0+
0-
#378
b1000100 1
b11 =
b0000000000000111 @
b00000000 )
b0001000 B
b0000111 5
1+
b0000000000000110 6
1-
#380
0+
0-
#382
b1000100 "S
b01110011000000000101001100000000 2
b000000010 <
b00 =
b0000000000001000 @
b01110011 )
b0001001 B
b0001000 5
1+
b0000000000000111 6
1-
#384
0+
0-
#386
b00000000 )
b0001010 B
b0001001 5
1+
b0000000000001000 6
1-
b01 =
b0000000000001001 @
#388
0+
0-
#390
b01010011 )
b0001011 B
b0001010 5
1+
b0000000000001001 6
1-
b10 =
b0000000000001010 @
#392
0+
0-
#394
b1000101 1
b11 =
b0000000000001011 @
b00000000 )
b0001100 B
b0001011 5
1+
b0000000000001010 6
1-
#396
0+
0-
#398
b1000101 "S
b01100101000000000111001000000000 2
b000000011 <
b00 =
b0000000000001100 @
b01100101 )
b0001101 B
b0001100 5
1+
b0000000000001011 6
1-
#400
0+
0-
#402
b00000000 )
b0001110 B
b0001101 5
1+
b0000000000001100 6
1-
b01 =
b0000000000001101 @
#404
0+
0-
#406
b01110010 )
b0001111 B
b0001110 5
1+
b0000000000001101 6
1-
b10 =
b0000000000001110 @
#408
0+
0-
#410
b1000110 1
b11 =
b0000000000001111 @
b00000000 )
b0010000 B
b0001111 5
1+
b0000000000001110 6
1-
#412
0+
0-
#414
b1000110 "S
b01101001000000000110000100000000 2
b000000100 <
b00 =
b0000000000010000 @
b01101001 )
b0010001 B
b0010000 5
1+
b0000000000001111 6
1-
#416
0+
0-
#418
b00000000 )
b0010010 B
b0010001 5
1+
b0000000000010000 6
1-
b01 =
b0000000000010001 @
#420
0+
0-
#422
b01100001 )
b0010011 B
b0010010 5
1+
b0000000000010001 6
1-
b10 =
b0000000000010010 @
#424
0+
0-
#426
b1000111 1
b11 =
b0000000000010011 @
b00000000 )
b0010100 B
b0010011 5
1+
b0000000000010010 6
1-
#428
0+
0-
#430
b1000111 "S
b01101100000000000100111000000000 2
b000000101 <
b00 =
b0000000000010100 @
b01101100 )
b0010101 B
b0010100 5
1+
b0000000000010011 6
1-
#432
0+
0-
#434
b00000000 )
b0010110 B
b0010101 5
1+
b0000000000010100 6
1-
b01 =
b0000000000010101 @
#436
0+
0-
#438
b01001110 )
b0010111 B
b0010110 5
1+
b0000000000010101 6
1-
b10 =
b0000000000010110 @
#440
0+
0-
#442
b1001000 1
b11 =
b0000000000010111 @
b00000000 )
b0011000 B
b0010111 5
1+
b0000000000010110 6
1-
#444
0+
0-
#446
b1001000 "S
b01110101000000000110110100000000 2
b000000110 <
b00 =
b0000000000011000 @
b01110101 )
b0011001 B
b0011000 5
1+
b0000000000010111 6
1-
#448
0+
0-
#450
b00000000 )
b0011010 B
b0011001 5
1+
b0000000000011000 6
1-
b01 =
b0000000000011001 @
#452
0+
0-
#454
b01101101 )
b0011011 B
b0011010 5
1+
b0000000000011001 6
1-
b10 =
b0000000000011010 @
#456
0+
0-
#458
b1001001 1
b11 =
b0000000000011011 @
b00000000 )
b0011100 B
b0011011 5
1+
b0000000000011010 6
1-
#460
0+
0-
#462
b1001001 "S
b01100010000000000110010100000000 2
b000000111 <
b00 =
b0000000000011100 @
b01100010 )
b0011101 B
b0011100 5
1+
b0000000000011011 6
1-
#464
0+
0-
#466
b00000000 )
b0011110 B
b0011101 5
1+
b0000000000011100 6
1-
b01 =
b0000000000011101 @
#468
0+
0-
#470
b01100101 )
b0011111 B
b0011110 5
1+
b0000000000011101 6
1-
b10 =
b0000000000011110 @
#472
0+
0-
#474
b1001010 1
b11 =
b0000000000011111 @
b00000000 )
b0100000 B
b0011111 5
1+
b0000000000011110 6
1-
#476
0+
0-
#478
b1001010 "S
b01110010000000000100100100000000 2
b000001000 <
b00 =
b0000000000100000 @
b01110010 )
b0100001 B
b0100000 5
1+
b0000000000011111 6
1-
#480
0+
0-
#482
b00000000 )
b0100010 B
b0100001 5
1+
b0000000000100000 6
1-
b01 =
b0000000000100001 @
#484
0+
0-
#486
b01001001 )
b0100011 B
b0100010 5
1+
b0000000000100001 6
1-
b10 =
b0000000000100010 @
#488
0+
0-
