doc/vcd/test_USBOutStreamBoundaryDetectorTest_test_boundary_detection.vcd
$scope module USBOutStreamBoundaryDetector $end
$var wire 1 ! usboutstreamboundarydetector_usboutstreaminterface0_valid $end
$var wire 1 " usboutstreamboundarydetector_usboutstreaminterface0_next $end
$var wire 8 # usboutstreamboundarydetector_usboutstreaminterface0_payload $end
$var wire 1 $ usboutstreamboundarydetector_usboutstreaminterface1_valid $end
$var wire 1 % usboutstreamboundarydetector_usboutstreaminterface1_next $end
$var wire 8 & usboutstreamboundarydetector_usboutstreaminterface1_payload $end
$var wire 1 ' usboutstreamboundarydetector0 $end
$var wire 1 ( usboutstreamboundarydetector1 $end
$var wire 1 ) usboutstreamboundarydetector2 $end
$var wire 1 * usboutstreamboundarydetector3 $end
$var wire 1 + usboutstreamboundarydetector4 $end
$var wire 1 , usboutstreamboundarydetector5 $end
$var wire 8 - usboutstreamboundarydetector_buffered_byte $end
$var wire 1 . usboutstreamboundarydetector_is_first_byte $end
$var wire 1 / usboutstreamboundarydetector_buffered_complete $end
$var wire 1 0 usboutstreamboundarydetector_buffered_invalid $end
$var wire 1 1 usboutstreamboundarydetector_is_ongoing0 $end
$var wire 1 2 usboutstreamboundarydetector_is_ongoing1 $end
$var wire 1 3 usboutstreamboundarydetector_is_ongoing2 $end
$var wire 1 4 sys_clk $end
$var wire 1 5 sys_rst $end
$var wire 1 6 usb_clk $end
$var wire 1 7 usb_rst $end
$var wire 160 8 fsm0 $end
$var wire 176 9 fsm1 $end
$var wire 8 : usboutstreamboundarydetector_buffered_byte_next_value0 $end
$var wire 1 ; usboutstreamboundarydetector_buffered_byte_next_value_ce0 $end
$var wire 1 < usboutstreamboundarydetector_is_first_byte_next_value1 $end
$var wire 1 = usboutstreamboundarydetector_is_first_byte_next_value_ce1 $end
$var wire 1 > usboutstreamboundarydetector_buffered_complete_next_value2 $end
$var wire 1 ? usboutstreamboundarydetector_buffered_complete_next_value_ce2 $end
$var wire 1 @ usboutstreamboundarydetector_buffered_invalid_next_value3 $end
$var wire 1 A usboutstreamboundarydetector_buffered_invalid_next_value_ce3 $end
$enddefinitions $end
$timescale 17ns $end
$dumpvars
$end
#1
0!
0"
b00000000 #
0$
0%
b00000000 &
0'
0(
0)
0*
0+
0,
b00000000 -
0.
0/
00
01
02
03
04
05
06
07
b01010111010000010100100101010100010111110100011001001111010100100101111101000110010010010101001001010011010101000101111101000010010110010101010001000101 8
b001100000011101001010111010000010100100101010100010111110100011001001111010100100101111101000110010010010101001001010011010101000101111101000010010110010101010001000101 9
b00000000 :
0;
0<
0=
0>
0?
0@
0A
11
#2
#3
16
b00110001001110100101001001000101010000110100010101001001010101100100010101011111010000010100111001000100010111110101010001010010010000010100111001010011010011010100100101010100 9
b10101010 :
1;
1<
1=
1!
14
1"
b10101010 #
#4
06
04
#5
16
b0101001001000101010000110100010101001001010101100100010101011111010000010100111001000100010111110101010001010010010000010100111001010011010011010100100101010100 8
01
b10111011 :
0<
12
b10101010 -
1A
1.
1?
14
b10111011 #
#6
06
04
#7
16
1$
1%
b10101010 &
b11001100 :
1+
b10111011 -
0.
14
b11001100 #
#8
06
04
#9
16
b11011101 #
b11001100 -
b10111011 &
b11011101 :
14
0+
#10
06
04
#11
16
b11001100 &
b00110010001110100100111101010101010101000101000001010101010101000101111101010011010101000101001001001111010000100100010101010011 9
b00000000 :
0;
b11011101 -
0!
14
0"
#12
06
04
#13
16
b0100111101010101010101000101000001010101010101000101111101010011010101000101001001001111010000100100010101010011 8
b11011101 &
b001100000011101001010111010000010100100101010100010111110100011001001111010100100101111101000110010010010101001001010011010101000101111101000010010110010101010001000101 9
02
0=
1,
13
14
#14
06
04
#15
16
0$
0%
b01010111010000010100100101010100010111110100011001001111010100100101111101000110010010010101001001010011010101000101111101000010010110010101010001000101 8
11
0,
0A
0?
03
14
0!
0"
b00000000 #
0$
0%
b00000000 &
0'
0(
0)
0*
0+
0,
b00000000 -
0.
0/
00
01
02
03
04
05
06
07
b01010111010000010100100101010100010111110100011001001111010100100101111101000110010010010101001001010011010101000101111101000010010110010101010001000101 8
b001100000011101001010111010000010100100101010100010111110100011001001111010100100101111101000110010010010101001001010011010101000101111101000010010110010101010001000101 9
b00000000 :
0;
0<
0=
0>
0?
0@
0A
