doc/vcd/test_USBInterpacketTimerTest_test_resets_and_delays.vcd
$scope module USBInterpacketTimer $end
$var wire 2 ! usbinterpackettimer0 $end
$var wire 1 " usbinterpackettimer1 $end
$var wire 1 # usbinterpackettimer2 $end
$var wire 1 $ usbinterpackettimer3 $end
$var wire 10 % usbinterpackettimer_counter $end
$var wire 1 & usbinterpackettimer4 $end
$var wire 1 ' start $end
$var wire 1 ( tx_allowed $end
$var wire 1 ) tx_timeout $end
$var wire 1 * rx_timeout $end
$var wire 1 + sys_clk $end
$var wire 1 , sys_rst $end
$var wire 1 - usb_clk $end
$var wire 1 . usb_rst $end
$enddefinitions $end
$timescale 17ns $end
$dumpvars
$end
#1
b00 !
0"
0#
0$
b0000000000 %
0&
0'
0(
0)
0*
0+
0,
0-
0.
#2
#3
b01 !
b0000000001 %
1-
1+
#4
0+
0-
#5
1+
b0000000010 %
1-
#6
0+
0-
#7
1+
b0000000011 %
1-
#8
0+
0-
#9
1+
b0000000100 %
1-
#10
0+
0-
#11
1+
1-
1'
b0000000101 %
1&
#12
0+
0-
#13
1+
1-
0'
b0000000000 %
0&
#14
0+
0-
#15
1+
b0000000001 %
1-
#16
0+
0-
#17
1+
b0000000010 %
1-
#18
0+
0-
#19
1+
b0000000011 %
1-
#20
0+
0-
#21
1+
b0000000100 %
1-
#22
0+
0-
#23
1+
b0000000101 %
1-
#24
0+
0-
#25
1+
b0000000110 %
1-
#26
0+
0-
#27
1+
b0000000111 %
1-
#28
0+
0-
#29
1+
b0000001000 %
1-
#30
0+
0-
#31
1+
b0000001001 %
1-
#32
0+
0-
#33
1+
1"
1-
b0000001010 %
1(
#34
0+
0-
#35
1+
0"
1-
b0000001011 %
0(
#36
0+
0-
#37
1+
b0000001100 %
1-
#38
0+
0-
#39
1+
b0000001101 %
1-
#40
0+
0-
#41
1+
b0000001110 %
1-
#42
0+
0-
#43
1+
b0000001111 %
1-
#44
0+
0-
#45
1+
b0000010000 %
1-
#46
0+
0-
#47
1+
b0000010001 %
1-
#48
0+
0-
#49
1+
b0000010010 %
1-
#50
0+
0-
#51
1+
b0000010011 %
1-
#52
0+
0-
#53
1+
b0000010100 %
1-
#54
0+
0-
#55
1+
b0000010101 %
1-
#56
0+
0-
#57
1+
b0000010110 %
1-
#58
0+
0-
#59
1+
b0000010111 %
1-
#60
0+
0-
#61
1+
b0000011000 %
1-
#62
0+
0-
#63
1+
b0000011001 %
1-
#64
0+
0-
#65
1+
b0000011010 %
1-
#66
0+
0-
#67
1+
b0000011011 %
1-
#68
0+
0-
#69
1+
b0000011100 %
1-
#70
0+
0-
#71
1+
b0000011101 %
1-
#72
0+
0-
#73
1+
b0000011110 %
1-
#74
0+
0-
#75
1+
b0000011111 %
1-
#76
0+
0-
#77
1+
1-
1#
b0000100000 %
1)
#78
0+
0-
#79
1+
1-
0#
b0000100001 %
0)
#80
0+
0-
#81
1+
b0000100010 %
1-
#82
0+
0-
#83
1+
b0000100011 %
1-
#84
0+
0-
#85
1+
b0000100100 %
1-
#86
0+
0-
#87
1+
b0000100101 %
1-
#88
0+
0-
#89
1+
b0000100110 %
1-
#90
0+
0-
#91
1+
b0000100111 %
1-
#92
0+
0-
#93
1+
b0000101000 %
1-
#94
0+
0-
#95
1+
b0000101001 %
1-
#96
0+
0-
#97
1+
b0000101010 %
1-
#98
0+
0-
#99
1+
b0000101011 %
1-
#100
0+
0-
#101
1+
b0000101100 %
1-
#102
0+
0-
#103
1+
b0000101101 %
1-
#104
0+
0-
#105
1+
b0000101110 %
1-
#106
0+
0-
#107
1+
b0000101111 %
1-
#108
0+
0-
#109
1+
b0000110000 %
1-
#110
0+
0-
#111
1+
b0000110001 %
1-
#112
0+
0-
#113
1+
b0000110010 %
1-
#114
0+
0-
#115
1+
b0000110011 %
1-
#116
0+
0-
#117
1+
b0000110100 %
1-
#118
0+
0-
#119
1+
b0000110101 %
1-
#120
0+
0-
#121
1+
b0000110110 %
1-
#122
0+
0-
#123
1+
b0000110111 %
1-
#124
0+
0-
#125
1+
b0000111000 %
1-
#126
0+
0-
#127
1+
b0000111001 %
1-
#128
0+
0-
#129
1+
b0000111010 %
1-
#130
0+
0-
#131
1+
b0000111011 %
1-
#132
0+
0-
#133
1+
b0000111100 %
1-
#134
0+
0-
#135
1+
b0000111101 %
1-
#136
0+
0-
#137
1+
b0000111110 %
1-
#138
0+
0-
#139
1+
b0000111111 %
1-
#140
0+
0-
#141
1+
b0001000000 %
1-
#142
0+
0-
#143
1+
b0001000001 %
1-
#144
0+
0-
#145
1+
b0001000010 %
1-
#146
0+
0-
#147
1+
b0001000011 %
1-
#148
0+
0-
#149
1+
b0001000100 %
1-
#150
0+
0-
#151
1+
b0001000101 %
1-
#152
0+
0-
#153
1+
b0001000110 %
1-
#154
0+
0-
#155
1+
b0001000111 %
1-
#156
0+
0-
#157
1+
b0001001000 %
1-
#158
0+
0-
#159
1+
b0001001001 %
1-
#160
0+
0-
#161
1+
b0001001010 %
1-
#162
0+
0-
#163
1+
b0001001011 %
1-
#164
0+
0-
#165
1+
b0001001100 %
1-
#166
0+
0-
#167
1+
b0001001101 %
1-
#168
0+
0-
#169
1+
b0001001110 %
1-
#170
0+
0-
#171
1+
b0001001111 %
1-
#172
0+
0-
#173
1+
1-
1$
b0001010000 %
1*
#174
0+
0-
#175
1+
1-
0$
b0001010001 %
0*
#176
0+
0-
#177
1+
b0001010010 %
1-
#178
0+
0-
#179
1+
b0001010011 %
1-
#180
0+
0-
#181
1+
b0001010100 %
1-
#182
0+
0-
#183
1+
b0001010101 %
1-
#184
0+
0-
#185
1+
b0001010110 %
1-
#186
0+
0-
#187
1+
b0001010111 %
1-
#188
0+
0-
#189
1+
b0001011000 %
1-
#190
0+
0-
#191
1+
b0001011001 %
1-
#192
0+
0-
#193
1+
b0001011010 %
1-
#194
0+
0-
#195
1+
b0001011011 %
1-
#196
0+
0-
#197
1+
b0001011100 %
1-
#198
0+
0-
#199
1+
b0001011101 %
1-
#200
0+
0-
#201
1+
b0001011110 %
1-
#202
0+
0-
#203
1+
b0001011111 %
1-
#204
0+
0-
#205
1+
b0001100000 %
1-
#206
0+
0-
#207
1+
b0001100001 %
1-
#208
0+
0-
#209
1+
b0001100010 %
1-
#210
0+
0-
#211
1+
b0001100011 %
1-
#212
0+
0-
#213
1+
b0001100100 %
1-
#214
0+
0-
#215
1+
b0001100101 %
1-
#216
0+
0-
#217
1+
b0001100110 %
1-
#218
0+
0-
#219
1+
b0001100111 %
1-
#220
0+
0-
#221
1+
b0001101000 %
1-
#222
0+
0-
#223
1+
b0001101001 %
1-
#224
0+
0-
#225
1+
b0001101010 %
1-
#226
0+
0-
#227
1+
b0001101011 %
1-
#228
0+
0-
#229
1+
b0001101100 %
1-
#230
0+
0-
#231
1+
b0001101101 %
1-
#232
0+
0-
#233
1+
b0001101110 %
1-
#234
0+
0-
#235
1+
b0001101111 %
1-
#236
0+
0-
#237
1+
b0001110000 %
1-
#238
0+
0-
#239
1+
b0001110001 %
1-
#240
0+
0-
#241
1+
b0001110010 %
1-
b00 !
0"
0#
0$
b0000000000 %
0&
0'
0(
0)
0*
0+
0,
0-
0.
