doc/vcd/test_ControlTranslatorTest_test_multiwrite_behavior.vcd
$scope module ULPIControlTranslator $end
$var wire 8 ! ulpiregisterwindow0 $end
$var wire 8 " ulpiregisterwindow1 $end
$var wire 1 # ulpiregisterwindow2 $end
$var wire 1 $ ulpiregisterwindow3 $end
$var wire 1 % ulpiregisterwindow4 $end
$var wire 1 & ulpiregisterwindow5 $end
$var wire 1 ' ulpiregisterwindow6 $end
$var wire 6 ( ulpiregisterwindow7 $end
$var wire 1 ) ulpiregisterwindow8 $end
$var wire 1 * ulpiregisterwindow9 $end
$var wire 8 + ulpiregisterwindow10 $end
$var wire 1 , ulpiregisterwindow11 $end
$var wire 8 - ulpiregisterwindow12 $end
$var wire 6 . ulpiregisterwindow13 $end
$var wire 8 / ulpiregisterwindow14 $end
$var wire 1 0 ulpicontroltranslator0 $end
$var wire 2 1 ulpicontroltranslator1 $end
$var wire 1 2 ulpicontroltranslator2 $end
$var wire 2 3 ulpicontroltranslator3 $end
$var wire 1 4 ulpicontroltranslator4 $end
$var wire 1 5 ulpicontroltranslator5 $end
$var wire 1 6 ulpicontroltranslator6 $end
$var wire 1 7 ulpicontroltranslator7 $end
$var wire 1 8 ulpicontroltranslator8 $end
$var wire 1 9 ulpicontroltranslator9 $end
$var wire 1 : ulpicontroltranslator10 $end
$var wire 1 ; ulpicontroltranslator11 $end
$var wire 1 < sys_clk $end
$var wire 1 = sys_rst $end
$var wire 1 > usb_clk $end
$var wire 1 ? usb_rst $end
$var wire 8 @ current_register_value_04 $end
$var wire 1 A write_requested_04 $end
$var wire 8 B write_value_04 $end
$var wire 1 C write_done_04 $end
$var wire 8 D current_register_value_0a $end
$var wire 1 E write_requested_0a $end
$var wire 8 F write_value_0a $end
$var wire 1 G write_done_0a $end
$var wire 1 H has_any_request $end
$var wire 1 I is_ongoing0 $end
$var wire 1 J is_ongoing1 $end
$var wire 1 K is_ongoing2 $end
$var wire 1 L is_ongoing3 $end
$var wire 1 M is_ongoing4 $end
$var wire 1 N is_ongoing5 $end
$var wire 1 O is_ongoing6 $end
$var wire 1 P is_ongoing7 $end
$var wire 1 Q is_ongoing8 $end
$var wire 144 R fsm0 $end
$var wire 160 S fsm1 $end
$enddefinitions $end
$dumpvars
$end
#0
b00000000 !
b00000000 "
0#
0$
0%
0&
0'
b000000 (
0)
0*
b00000000 +
0,
b00000000 -
b000000 .
b00000000 /
00
b01 1
02
b00 3
04
05
16
17
08
09
0:
1;
0<
0=
0>
0?
b01000001 @
0A
b00000000 B
0C
b00000110 D
0E
b00000000 F
0G
0H
0I
0J
0K
0L
0M
0N
0O
0P
0Q
b01001001010001000100110001000101 R
b001100000011101001001001010001000100110001000101 S
1I
1J
b001010 (
1E
1H
b001010 .
#0.0
#0.0
0;
1<
1>
b000000 (
0E
b10000110 F
0H
b000000 .
10
#0.0
0<
0>
#0.0
1<
1>
#0.0
0<
0>
#0.0
1<
1>
#0.0
0<
0>
#0.0
1<
1>
#0.0
0<
0>
#0.0
1<
1>
#0.0
0<
0>
#0.0
1<
1>
#0.0
0<
0>
#0.0
1<
1>
#0.0
0<
0>
#0.0
1<
1>
#0.0
0<
0>
#0.0
1<
1>
#0.0
0<
0>
#0.0
1<
1>
#0.0
0<
0>
#0.0
07
b000100 (
1E
1<
1,
1H
1>
b000100 .
b11 3
b00110101001110100101001101010100010000010101001001010100010111110101011101010010010010010101010001000101 S
1A
06
#0.0
0<
0>
#0.0
0I
1'
0J
1:
b00000000 F
1<
b01011001 -
1>
b000000 .
b0101001101010100010000010101001001010100010111110101011101010010010010010101010001000101 R
b0011011000111010010100110100010101001110010001000101111101010111010100100100100101010100010001010101111101000001010001000100010001010010010001010101001101010011 S
b01011001 B
1N
#0.0
0<
0>
#0.0
1O
1<
1>
0N
b10000100 "
b010100110100010101001110010001000101111101010111010100100100100101010100010001010101111101000001010001000100010001010010010001010101001101010011 R
1#
b001101110011101001001000010011110100110001000100010111110101011101010010010010010101010001000101 S
1%
#0.0
0<
0>
#0.0
b00111000001110100101001101010100010011110101000001010000010010010100111001000111 S
0O
b01011001 "
b01001000010011110100110001000100010111110101011101010010010010010101010001000101 R
0#
1P
1<
1>
#0.0
0<
0>
#0.0
1Q
b001100000011101001001001010001000100110001000101 S
b00000000 "
b0101001101010100010011110101000001010000010010010100111001000111 R
1&
0P
1<
1>
#0.0
0<
0>
#0.0
1I
0'
1J
1)
1<
0,
1>
b000100 .
b01011001 /
0Q
b01001001010001000100110001000101 R
1C
0&
#0.0
0<
0>
#0.0
b001010 (
0)
0:
1,
1<
b00000000 -
1>
b001010 .
b00000000 /
b01011001 @
0A
b00110101001110100101001101010100010000010101001001010100010111110101011101010010010010010101010001000101 S
0C
#0.0
0<
0>
#0.0
0I
1'
0J
1:
1<
1>
b000000 .
b0101001101010100010000010101001001010100010111110101011101010010010010010101010001000101 R
b0011011000111010010100110100010101001110010001000101111101010111010100100100100101010100010001010101111101000001010001000100010001010010010001010101001101010011 S
1N
#0.0
0<
0>
#0.0
1O
b10001010 "
b010100110100010101001110010001000101111101010111010100100100100101010100010001010101111101000001010001000100010001010010010001010101001101010011 R
1#
b001101110011101001001000010011110100110001000100010111110101011101010010010010010101010001000101 S
1<
0N
1>
#0.0
0<
0>
#0.0
b00111000001110100101001101010100010011110101000001010000010010010100111001000111 S
0O
b00000000 "
b01001000010011110100110001000100010111110101011101010010010010010101010001000101 R
0#
1P
1<
1>
#0.0
0<
0>
#0.0
1Q
0P
b001100000011101001001001010001000100110001000101 S
b0101001101010100010011110101000001010000010010010100111001000111 R
1>
1<
1&
#0.0
0<
0>
#0.0
1I
0'
1J
1)
1G
1<
0,
1>
b001010 .
0Q
b01001001010001000100110001000101 R
0&
#0.0
0<
0>
#0.0
b000000 (
b00000000 D
0)
0E
0:
0G
1<
0H
1>
b000000 .
#0.0
0<
0>
#0.0
1<
1>
#0.0
0<
0>
#0.0
1<
1>
b00000000 !
b00000000 "
0#
0$
0%
0&
0'
b000000 (
0)
0*
b00000000 +
0,
b00000000 -
b000000 .
b00000000 /
00
b01 1
02
b00 3
04
05
16
17
08
09
0:
1;
0<
0=
0>
0?
b01000001 @
0A
b00000000 B
0C
b00000110 D
0E
b00000000 F
0G
0H
0I
0J
0K
0L
0M
0N
0O
0P
0Q
b01001001010001000100110001000101 R
b001100000011101001001001010001000100110001000101 S
