doc/vcd/test_TestULPIRegisters_test_interrupted_read.vcd
$scope module ULPIRegisterWindow $end
$var wire 8 ! ulpiregisterwindow0 $end
$var wire 8 " ulpiregisterwindow1 $end
$var wire 1 # ulpiregisterwindow2 $end
$var wire 1 $ ulpiregisterwindow3 $end
$var wire 1 % ulpiregisterwindow4 $end
$var wire 1 & ulpiregisterwindow5 $end
$var wire 1 ' ulpiregisterwindow6 $end
$var wire 6 ( ulpiregisterwindow7 $end
$var wire 1 ) ulpiregisterwindow8 $end
$var wire 1 * ulpiregisterwindow9 $end
$var wire 8 + ulpiregisterwindow10 $end
$var wire 1 , ulpiregisterwindow11 $end
$var wire 8 - ulpiregisterwindow12 $end
$var wire 6 . ulpiregisterwindow13 $end
$var wire 8 / ulpiregisterwindow14 $end
$var wire 1 0 sys_clk $end
$var wire 1 1 sys_rst $end
$var wire 1 2 usb_clk $end
$var wire 1 3 usb_rst $end
$var wire 1 4 is_ongoing0 $end
$var wire 1 5 is_ongoing1 $end
$var wire 1 6 is_ongoing2 $end
$var wire 1 7 is_ongoing3 $end
$var wire 1 8 is_ongoing4 $end
$var wire 1 9 is_ongoing5 $end
$var wire 1 : is_ongoing6 $end
$var wire 1 ; is_ongoing7 $end
$var wire 1 < is_ongoing8 $end
$var wire 144 = fsm0 $end
$var wire 160 > fsm1 $end
$enddefinitions $end
$dumpvars
$end
#0
b00000000 !
b00000000 "
0#
0$
0%
0&
0'
b000000 (
0)
0*
b00000000 +
0,
b00000000 -
b000000 .
b00000000 /
00
01
02
03
04
05
06
07
08
09
0:
0;
0<
b01001001010001000100110001000101 =
b001100000011101001001001010001000100110001000101 >
14
15
#0.0
#0.0
1*
10
12
b001100010011101001010011010101000100000101010010010101000101111101010010010001010100000101000100 >
1$
#0.0
02
00
#0.0
04
0*
16
10
05
1'
b01010011010101000100000101010010010101000101111101010010010001010100000101000100 =
12
#0.0
02
00
#0.0
12
10
#0.0
02
00
#0.0
12
10
#0.0
02
00
#0.0
12
10
#0.0
02
00
#0.0
12
10
#0.0
02
00
#0.0
12
10
#0.0
02
00
#0.0
12
10
#0.0
02
00
#0.0
12
10
#0.0
02
00
#0.0
12
10
#0.0
02
00
#0.0
12
10
#0.0
02
00
#0.0
12
10
#0.0
02
00
#0.0
12
10
#0.0
02
00
#0.0
10
12
b00110010001110100101001101000101010011100100010001011111010100100100010101000001010001000101111101000001010001000100010001010010010001010101001101010011 >
0$
#0.0
02
00
#0.0
17
12
06
10
b0101001101000101010011100100010001011111010100100100010101000001010001000101111101000001010001000100010001010010010001010101001101010011 =
b11000000 "
1#
#0.0
02
00
#0.0
10
12
b001100010011101001010011010101000100000101010010010101000101111101010010010001010100000101000100 >
1$
#0.0
02
00
#0.0
07
16
10
b01010011010101000100000101010010010101000101111101010010010001010100000101000100 =
12
0#
#0.0
02
00
#0.0
10
12
b00110010001110100101001101000101010011100100010001011111010100100100010101000001010001000101111101000001010001000100010001010010010001010101001101010011 >
0$
#0.0
02
00
#0.0
17
06
10
b0101001101000101010011100100010001011111010100100100010101000001010001000101111101000001010001000100010001010010010001010101001101010011 =
12
1#
#0.0
02
00
#0.0
1%
12
b0011001100111010010100100100010101000001010001000101111101010100010101010101001001001110010000010101001001001111010101010100111001000100 >
10
#0.0
02
00
#0.0
07
12
10
b010100100100010101000001010001000101111101010100010101010101001001001110010000010101001001001111010101010100111001000100 =
b00000000 "
b001101000011101001010010010001010100000101000100010111110100001101001111010011010101000001001100010001010101010001000101 >
0#
#0.0
02
00
#0.0
18
10
b00000111 !
b01010010010001010100000101000100010111110100001101001111010011010101000001001100010001010101010001000101 =
12
b001100000011101001001001010001000100110001000101 >
#0.0
02
00
#0.0
14
0'
15
1)
b00000111 +
b01001001010001000100110001000101 =
10
08
12
#0.0
02
00
#0.0
0)
12
10
b00000000 !
b00000000 "
0#
0$
0%
0&
0'
b000000 (
0)
0*
b00000000 +
0,
b00000000 -
b000000 .
b00000000 /
00
01
02
03
04
05
06
07
08
09
0:
0;
0<
b01001001010001000100110001000101 =
b001100000011101001001001010001000100110001000101 >
